[{
  "_id": {
    "$oid": "5b2d918d8e7f240004977e85"
  },
  "idUsuario": "5b2c08f92dfdde000441407a",
  "idExercicio": "5b2d8fcf8e7f240004977e7c",
  "dataInicial": {
    "$date": "2018-06-23T00:17:16.990Z"
  }
},{
  "_id": {
    "$oid": "5b2d91dd8e7f240004977e86"
  },
  "idUsuario": "5b2c08f92dfdde000441407a",
  "idExercicio": "5b2d8fcf8e7f240004977e7c",
  "dataInicial": {
    "$date": "2018-06-23T00:18:36.922Z"
  }
},{
  "_id": {
    "$oid": "5b2d91f98e7f240004977e87"
  },
  "idUsuario": "5b2c08f92dfdde000441407a",
  "idExercicio": "5b2d8fcf8e7f240004977e7c",
  "dataInicial": {
    "$date": "2018-06-23T00:19:05.294Z"
  }
},{
  "_id": {
    "$oid": "5b2d921a8e7f240004977e88"
  },
  "idUsuario": "5b2c02280138170004fe9f04",
  "idExercicio": "5b2d8fcf8e7f240004977e7c",
  "dataInicial": {
    "$date": "2018-06-23T00:19:38.805Z"
  }
},{
  "_id": {
    "$oid": "5b2d92758e7f240004977e89"
  },
  "idUsuario": "5b2c08f92dfdde000441407a",
  "idExercicio": "5b2d90248e7f240004977e7d",
  "dataInicial": {
    "$date": "2018-06-23T00:21:09.438Z"
  }
},{
  "_id": {
    "$oid": "5b2d92a68e7f240004977e8a"
  },
  "idUsuario": "5b2c08f92dfdde000441407a",
  "idExercicio": "5b2d90248e7f240004977e7d",
  "dataInicial": {
    "$date": "2018-06-23T00:21:58.094Z"
  }
},{
  "_id": {
    "$oid": "5b2d92d68e7f240004977e8b"
  },
  "idUsuario": "5b2c08f92dfdde000441407a",
  "idExercicio": "5b2d90248e7f240004977e7d",
  "dataInicial": {
    "$date": "2018-06-23T00:22:46.318Z"
  }
},{
  "_id": {
    "$oid": "5b2d92e18e7f240004977e8c"
  },
  "idUsuario": "5b2c08f92dfdde000441407a",
  "idExercicio": "5b2d90248e7f240004977e7d",
  "dataInicial": {
    "$date": "2018-06-23T00:22:57.540Z"
  }
},{
  "_id": {
    "$oid": "5b2d93438e7f240004977e8d"
  },
  "idUsuario": "5b2c08f92dfdde000441407a",
  "idExercicio": "5b2d8fcf8e7f240004977e7c",
  "dataInicial": {
    "$date": "2018-06-23T00:24:35.038Z"
  }
},{
  "_id": {
    "$oid": "5b2d934d8e7f240004977e8e"
  },
  "idUsuario": "5b2c08f92dfdde000441407a",
  "idExercicio": "5b2d8fcf8e7f240004977e7c",
  "dataInicial": {
    "$date": "2018-06-23T00:24:45.796Z"
  }
},{
  "_id": {
    "$oid": "5b2d93a18e7f240004977e8f"
  },
  "idUsuario": "5b2c08f92dfdde000441407a",
  "idExercicio": "5b2d905b8e7f240004977e7e",
  "dataInicial": {
    "$date": "2018-06-23T00:26:09.220Z"
  }
},{
  "_id": {
    "$oid": "5b2eb6d13ebaa50004e95fcc"
  },
  "idUsuario": "5b2c08f92dfdde000441407a",
  "idExercicio": "5b2eb6b33ebaa50004e95fcb",
  "dataInicial": {
    "$date": "2018-06-23T21:08:32.888Z"
  }
},{
  "_id": {
    "$oid": "5b2eb8783ebaa50004e95fcd"
  },
  "idUsuario": "5b2c08f92dfdde000441407a",
  "idExercicio": "5b2eb6b33ebaa50004e95fcb",
  "dataInicial": {
    "$date": "2018-06-23T21:15:36.833Z"
  }
},{
  "_id": {
    "$oid": "5b2eb8e63ebaa50004e95fce"
  },
  "idUsuario": "5b2c08f92dfdde000441407a",
  "idExercicio": "5b2d90e98e7f240004977e81",
  "dataInicial": {
    "$date": "2018-06-23T21:17:25.938Z"
  }
},{
  "_id": {
    "$oid": "5b2eb9e63ebaa50004e95fd0"
  },
  "idUsuario": "5b2c08f92dfdde000441407a",
  "idExercicio": "5b2eb9cd3ebaa50004e95fcf",
  "dataInicial": {
    "$date": "2018-06-23T21:21:42.713Z"
  }
},{
  "_id": {
    "$oid": "5b2ebc543ebaa50004e95fd2"
  },
  "idUsuario": "5b2c08f92dfdde000441407a",
  "idExercicio": "5b2d90e98e7f240004977e81",
  "dataInicial": {
    "$date": "2018-06-23T21:32:04.157Z"
  }
},{
  "_id": {
    "$oid": "5b2ebce33ebaa50004e95fd3"
  },
  "idUsuario": "5b2c08f92dfdde000441407a",
  "idExercicio": "5b2d90e98e7f240004977e81",
  "dataInicial": {
    "$date": "2018-06-23T21:34:27.594Z"
  }
},{
  "_id": {
    "$oid": "5b2ebdac3ebaa50004e95fd4"
  },
  "idUsuario": "5b2c08f92dfdde000441407a",
  "idExercicio": "5b2d90e98e7f240004977e81",
  "dataInicial": {
    "$date": "2018-06-23T21:37:48.448Z"
  }
},{
  "_id": {
    "$oid": "5b2ebe003ebaa50004e95fd5"
  },
  "idUsuario": "5b2c08f92dfdde000441407a",
  "idExercicio": "5b2d90e98e7f240004977e81",
  "dataInicial": {
    "$date": "2018-06-23T21:39:11.995Z"
  }
},{
  "_id": {
    "$oid": "5b2ebe623ebaa50004e95fd6"
  },
  "idUsuario": "5b2c08f92dfdde000441407a",
  "idExercicio": "5b2d90e98e7f240004977e81",
  "dataInicial": {
    "$date": "2018-06-23T21:40:50.163Z"
  }
},{
  "_id": {
    "$oid": "5b2ec8af3ebaa50004e95fd8"
  },
  "idUsuario": "5b2c08f92dfdde000441407a",
  "idExercicio": "5b2ec5f23ebaa50004e95fd7",
  "dataInicial": {
    "$date": "2018-06-23T22:24:47.155Z"
  }
},{
  "_id": {
    "$oid": "5b2ec9093ebaa50004e95fd9"
  },
  "idUsuario": "5b2c08f92dfdde000441407a",
  "idExercicio": "5b2ec5f23ebaa50004e95fd7",
  "dataInicial": {
    "$date": "2018-06-23T22:26:17.036Z"
  }
},{
  "_id": {
    "$oid": "5b2ecc593ebaa50004e95fdb"
  },
  "idUsuario": "5b2c08f92dfdde000441407a",
  "idExercicio": "5b2ecb873ebaa50004e95fda",
  "dataInicial": {
    "$date": "2018-06-23T22:40:25.274Z"
  }
},{
  "_id": {
    "$oid": "5b2ed0d33ebaa50004e95fdd"
  },
  "idUsuario": "5b2c08f92dfdde000441407a",
  "idExercicio": "5b2ed0853ebaa50004e95fdc",
  "dataInicial": {
    "$date": "2018-06-23T22:59:31.754Z"
  }
},{
  "_id": {
    "$oid": "5b2ed2953ebaa50004e95fdf"
  },
  "idUsuario": "5b2c08f92dfdde000441407a",
  "idExercicio": "5b2ed2443ebaa50004e95fde",
  "dataInicial": {
    "$date": "2018-06-23T23:07:01.552Z"
  }
},{
  "_id": {
    "$oid": "5b2ed5aa3ebaa50004e95fe1"
  },
  "idUsuario": "5b2c08f92dfdde000441407a",
  "idExercicio": "5b2ed5643ebaa50004e95fe0",
  "dataInicial": {
    "$date": "2018-06-23T23:20:10.877Z"
  }
},{
  "_id": {
    "$oid": "5b2ee0903ebaa50004e95fe3"
  },
  "idUsuario": "5b2ee0613ebaa50004e95fe2",
  "idExercicio": "5b2ed5643ebaa50004e95fe0",
  "dataInicial": {
    "$date": "2018-06-24T00:06:40.137Z"
  }
},{
  "_id": {
    "$oid": "5b2ee0e03ebaa50004e95fe6"
  },
  "idUsuario": "5b2ee09b3ebaa50004e95fe5",
  "idExercicio": "5b2ed5643ebaa50004e95fe0",
  "dataInicial": {
    "$date": "2018-06-24T00:08:00.306Z"
  }
},{
  "_id": {
    "$oid": "5b2ee47a3ebaa50004e95fe9"
  },
  "idUsuario": "5b2ee0613ebaa50004e95fe2",
  "idExercicio": "5b2d90248e7f240004977e7d",
  "dataInicial": {
    "$date": "2018-06-24T00:23:22.161Z"
  }
},{
  "_id": {
    "$oid": "5b2ee4e13ebaa50004e95fea"
  },
  "idUsuario": "5b2ee0613ebaa50004e95fe2",
  "idExercicio": "5b2d8fcf8e7f240004977e7c",
  "dataInicial": {
    "$date": "2018-06-24T00:25:05.715Z"
  }
},{
  "_id": {
    "$oid": "5b2eed2c3ebaa50004e95fec"
  },
  "idUsuario": "5b2ee09b3ebaa50004e95fe5",
  "idExercicio": "5b2d90248e7f240004977e7d",
  "dataInicial": {
    "$date": "2018-06-24T01:00:28.214Z"
  }
},{
  "_id": {
    "$oid": "5b2eee273ebaa50004e95fed"
  },
  "idUsuario": "5b2ee09b3ebaa50004e95fe5",
  "idExercicio": "5b2ecb873ebaa50004e95fda",
  "dataInicial": {
    "$date": "2018-06-24T01:04:39.166Z"
  }
},{
  "_id": {
    "$oid": "5b2ef0913ebaa50004e95ff0"
  },
  "idUsuario": "5b2ee09b3ebaa50004e95fe5",
  "idExercicio": "5b2d908f8e7f240004977e7f",
  "dataInicial": {
    "$date": "2018-06-24T01:14:56.618Z"
  }
},{
  "_id": {
    "$oid": "5b2ef1773ebaa50004e95ff1"
  },
  "idUsuario": "5b2ee09b3ebaa50004e95fe5",
  "idExercicio": "5b2d908f8e7f240004977e7f",
  "dataInicial": {
    "$date": "2018-06-24T01:18:46.805Z"
  }
},{
  "_id": {
    "$oid": "5b2ef1813ebaa50004e95ff2"
  },
  "idUsuario": "5b2ee09b3ebaa50004e95fe5",
  "idExercicio": "5b2d90c08e7f240004977e80",
  "dataInicial": {
    "$date": "2018-06-24T01:18:57.411Z"
  }
},{
  "_id": {
    "$oid": "5b2ef2ab3ebaa50004e95ff3"
  },
  "idUsuario": "5b2ee0613ebaa50004e95fe2",
  "idExercicio": "5b2ecb873ebaa50004e95fda",
  "dataInicial": {
    "$date": "2018-06-24T01:23:55.051Z"
  }
},{
  "_id": {
    "$oid": "5b2ef2b33ebaa50004e95ff4"
  },
  "idUsuario": "5b2ee09b3ebaa50004e95fe5",
  "idExercicio": "5b2d911b8e7f240004977e82",
  "dataInicial": {
    "$date": "2018-06-24T01:24:02.876Z"
  }
},{
  "_id": {
    "$oid": "5b2ef3a03ebaa50004e95ff6"
  },
  "idUsuario": "5b2ee0613ebaa50004e95fe2",
  "idExercicio": "5b2ed5643ebaa50004e95fe0",
  "dataInicial": {
    "$date": "2018-06-24T01:28:00.416Z"
  }
},{
  "_id": {
    "$oid": "5b2ef3fa3ebaa50004e95ff7"
  },
  "idUsuario": "5b2ee09b3ebaa50004e95fe5",
  "idExercicio": "5b2d911b8e7f240004977e82",
  "dataInicial": {
    "$date": "2018-06-24T01:29:30.002Z"
  }
},{
  "_id": {
    "$oid": "5b2ef43f3ebaa50004e95ff8"
  },
  "idUsuario": "5b2ee09b3ebaa50004e95fe5",
  "idExercicio": "5b2d913b8e7f240004977e83",
  "dataInicial": {
    "$date": "2018-06-24T01:30:39.099Z"
  }
},{
  "_id": {
    "$oid": "5b2ef4e33ebaa50004e95ff9"
  },
  "idUsuario": "5b2ee09b3ebaa50004e95fe5",
  "idExercicio": "5b2d90248e7f240004977e7d",
  "dataInicial": {
    "$date": "2018-06-24T01:33:23.520Z"
  }
},{
  "_id": {
    "$oid": "5b2ef4f43ebaa50004e95ffa"
  },
  "idUsuario": "5b2ee09b3ebaa50004e95fe5",
  "idExercicio": "5b2d91658e7f240004977e84",
  "dataInicial": {
    "$date": "2018-06-24T01:33:40.521Z"
  }
},{
  "_id": {
    "$oid": "5b2ef6933ebaa50004e95ffb"
  },
  "idUsuario": "5b2ee09b3ebaa50004e95fe5",
  "idExercicio": "5b2ed0853ebaa50004e95fdc",
  "dataInicial": {
    "$date": "2018-06-24T01:40:35.454Z"
  }
},{
  "_id": {
    "$oid": "5b2ef7783ebaa50004e95ffc"
  },
  "idUsuario": "5b2ee09b3ebaa50004e95fe5",
  "idExercicio": "5b2eb9cd3ebaa50004e95fcf",
  "dataInicial": {
    "$date": "2018-06-24T01:44:24.202Z"
  }
},{
  "_id": {
    "$oid": "5b2ef7f33ebaa50004e95ffd"
  },
  "idUsuario": "5b2ee09b3ebaa50004e95fe5",
  "idExercicio": "5b2eb6b33ebaa50004e95fcb",
  "dataInicial": {
    "$date": "2018-06-24T01:46:27.195Z"
  }
},{
  "_id": {
    "$oid": "5b2efc7d3ebaa50004e95ffe"
  },
  "idUsuario": "5b2ee0613ebaa50004e95fe2",
  "idExercicio": "5b2d908f8e7f240004977e7f",
  "dataInicial": {
    "$date": "2018-06-24T02:05:49.128Z"
  }
},{
  "_id": {
    "$oid": "5b2efe343ebaa50004e96000"
  },
  "idUsuario": "5b2ee0613ebaa50004e95fe2",
  "idExercicio": "5b2d90248e7f240004977e7d",
  "dataInicial": {
    "$date": "2018-06-24T02:13:08.673Z"
  }
},{
  "_id": {
    "$oid": "5b2efe6a3ebaa50004e96001"
  },
  "idUsuario": "5b2ee0613ebaa50004e95fe2",
  "idExercicio": "5b2eb6b33ebaa50004e95fcb",
  "dataInicial": {
    "$date": "2018-06-24T02:14:02.505Z"
  }
},{
  "_id": {
    "$oid": "5b2efe8c3ebaa50004e96002"
  },
  "idUsuario": "5b2ee0613ebaa50004e95fe2",
  "idExercicio": "5b2d911b8e7f240004977e82",
  "dataInicial": {
    "$date": "2018-06-24T02:14:36.569Z"
  }
},{
  "_id": {
    "$oid": "5b2efebb3ebaa50004e96003"
  },
  "idUsuario": "5b2ee0613ebaa50004e95fe2",
  "idExercicio": "5b2d905b8e7f240004977e7e",
  "dataInicial": {
    "$date": "2018-06-24T02:15:23.550Z"
  }
},{
  "_id": {
    "$oid": "5b2efee93ebaa50004e96004"
  },
  "idUsuario": "5b2ee0613ebaa50004e95fe2",
  "idExercicio": "5b2d90e98e7f240004977e81",
  "dataInicial": {
    "$date": "2018-06-24T02:16:09.080Z"
  }
},{
  "_id": {
    "$oid": "5b2f1e94126a100004210e9c"
  },
  "idUsuario": "5b2c02ab0138170004fe9f07",
  "idExercicio": "5b2ed5643ebaa50004e95fe0",
  "dataInicial": {
    "$date": "2018-06-24T04:31:16.445Z"
  }
},{
  "_id": {
    "$oid": "5b2f1f82126a100004210e9e"
  },
  "idUsuario": "5b2c02ab0138170004fe9f07",
  "idExercicio": "5b2d908f8e7f240004977e7f",
  "dataInicial": {
    "$date": "2018-06-24T04:35:14.095Z"
  }
},{
  "_id": {
    "$oid": "5b2fa745a9e457000412bedc"
  },
  "idUsuario": "5b2fa720a9e457000412bedb",
  "idExercicio": "5b2d8fcf8e7f240004977e7c",
  "dataInicial": {
    "$date": "2018-06-24T14:14:30.453Z"
  }
},{
  "_id": {
    "$oid": "5b2fb9dfa9e457000412bedd"
  },
  "idUsuario": "5b2c02ab0138170004fe9f07",
  "idExercicio": "5b2ed5643ebaa50004e95fe0",
  "dataInicial": {
    "$date": "2018-06-24T15:33:50.413Z"
  }
},{
  "_id": {
    "$oid": "5b2fe4d829f6c40004838c8f"
  },
  "idUsuario": "5b2fe4a029f6c40004838c8e",
  "idExercicio": "5b2d908f8e7f240004977e7f",
  "dataInicial": {
    "$date": "2018-06-24T18:37:12.722Z"
  }
},{
  "_id": {
    "$oid": "5b300cb4ea6d59000459db26"
  },
  "idUsuario": "5b300c85ea6d59000459db25",
  "idExercicio": "5b2d908f8e7f240004977e7f",
  "dataInicial": {
    "$date": "2018-06-24T21:27:17.746Z"
  }
},{
  "_id": {
    "$oid": "5b300fd1ea6d59000459db27"
  },
  "idUsuario": "5b300c85ea6d59000459db25",
  "idExercicio": "5b2ed0853ebaa50004e95fdc",
  "dataInicial": {
    "$date": "2018-06-24T21:40:35.271Z"
  }
},{
  "_id": {
    "$oid": "5b301081ea6d59000459db28"
  },
  "idUsuario": "5b300c85ea6d59000459db25",
  "idExercicio": "5b2d90248e7f240004977e7d",
  "dataInicial": {
    "$date": "2018-06-24T21:43:31.145Z"
  }
},{
  "_id": {
    "$oid": "5b30118dea6d59000459db29"
  },
  "idUsuario": "5b300c85ea6d59000459db25",
  "idExercicio": "5b2d911b8e7f240004977e82",
  "dataInicial": {
    "$date": "2018-06-24T21:47:59.005Z"
  }
},{
  "_id": {
    "$oid": "5b3011ddea6d59000459db2a"
  },
  "idUsuario": "5b300c85ea6d59000459db25",
  "idExercicio": "5b2d8fcf8e7f240004977e7c",
  "dataInicial": {
    "$date": "2018-06-24T21:49:19.285Z"
  }
},{
  "_id": {
    "$oid": "5b301209ea6d59000459db2b"
  },
  "idUsuario": "5b300c85ea6d59000459db25",
  "idExercicio": "5b2d905b8e7f240004977e7e",
  "dataInicial": {
    "$date": "2018-06-24T21:50:03.249Z"
  }
},{
  "_id": {
    "$oid": "5b301231ea6d59000459db2c"
  },
  "idUsuario": "5b300c85ea6d59000459db25",
  "idExercicio": "5b2eb6b33ebaa50004e95fcb",
  "dataInicial": {
    "$date": "2018-06-24T21:50:43.446Z"
  }
},{
  "_id": {
    "$oid": "5b301288ea6d59000459db2d"
  },
  "idUsuario": "5b300c85ea6d59000459db25",
  "idExercicio": "5b2ec5f23ebaa50004e95fd7",
  "dataInicial": {
    "$date": "2018-06-24T21:52:10.149Z"
  }
},{
  "_id": {
    "$oid": "5b301381ea6d59000459db2e"
  },
  "idUsuario": "5b300c85ea6d59000459db25",
  "idExercicio": "5b2ecb873ebaa50004e95fda",
  "dataInicial": {
    "$date": "2018-06-24T21:56:19.030Z"
  }
},{
  "_id": {
    "$oid": "5b3014ecea6d59000459db2f"
  },
  "idUsuario": "5b300c85ea6d59000459db25",
  "idExercicio": "5b2eb9cd3ebaa50004e95fcf",
  "dataInicial": {
    "$date": "2018-06-24T22:02:22.510Z"
  }
},{
  "_id": {
    "$oid": "5b3015b2ea6d59000459db30"
  },
  "idUsuario": "5b300c85ea6d59000459db25",
  "idExercicio": "5b2ed5643ebaa50004e95fe0",
  "dataInicial": {
    "$date": "2018-06-24T22:05:40.589Z"
  }
},{
  "_id": {
    "$oid": "5b30252f3653020004430047"
  },
  "idUsuario": "5b2c02ab0138170004fe9f07",
  "idExercicio": "5b2ec5f23ebaa50004e95fd7",
  "dataInicial": {
    "$date": "2018-06-24T23:11:43.819Z"
  }
},{
  "_id": {
    "$oid": "5b302e873653020004430049"
  },
  "idUsuario": "5b302e443653020004430048",
  "idExercicio": "5b2d905b8e7f240004977e7e",
  "dataInicial": {
    "$date": "2018-06-24T23:51:36.378Z"
  }
},{
  "_id": {
    "$oid": "5b303162365302000443004a"
  },
  "idUsuario": "5b302e443653020004430048",
  "idExercicio": "5b2d905b8e7f240004977e7e",
  "dataInicial": {
    "$date": "2018-06-25T00:03:47.121Z"
  }
},{
  "_id": {
    "$oid": "5b3031bf365302000443004b"
  },
  "idUsuario": "5b302e443653020004430048",
  "idExercicio": "5b2d90248e7f240004977e7d",
  "dataInicial": {
    "$date": "2018-06-25T00:05:21.049Z"
  }
},{
  "_id": {
    "$oid": "5b30333b365302000443004c"
  },
  "idUsuario": "5b302e443653020004430048",
  "idExercicio": "5b2d8fcf8e7f240004977e7c",
  "dataInicial": {
    "$date": "2018-06-25T00:11:40.138Z"
  }
},{
  "_id": {
    "$oid": "5b303364365302000443004d"
  },
  "idUsuario": "5b302e443653020004430048",
  "idExercicio": "5b2eb6b33ebaa50004e95fcb",
  "dataInicial": {
    "$date": "2018-06-25T00:12:22.020Z"
  }
},{
  "_id": {
    "$oid": "5b3033e1365302000443004e"
  },
  "idUsuario": "5b302e443653020004430048",
  "idExercicio": "5b2d905b8e7f240004977e7e",
  "dataInicial": {
    "$date": "2018-06-25T00:14:26.978Z"
  }
},{
  "_id": {
    "$oid": "5b30341b365302000443004f"
  },
  "idUsuario": "5b302e443653020004430048",
  "idExercicio": "5b2ec5f23ebaa50004e95fd7",
  "dataInicial": {
    "$date": "2018-06-25T00:15:24.446Z"
  }
},{
  "_id": {
    "$oid": "5b303b443653020004430051"
  },
  "idUsuario": "5b303ab63653020004430050",
  "idExercicio": "5b2ecb873ebaa50004e95fda",
  "dataInicial": {
    "$date": "2018-06-25T00:45:56.459Z"
  }
},{
  "_id": {
    "$oid": "5b30ca8ff725fb0004194624"
  },
  "idUsuario": "5b30ca56f725fb0004194623",
  "idExercicio": "5b2ecb873ebaa50004e95fda",
  "dataInicial": {
    "$date": "2018-06-25T10:57:18.343Z"
  }
},{
  "_id": {
    "$oid": "5b30ca9cf725fb0004194625"
  },
  "idUsuario": "5b30ca56f725fb0004194623",
  "idExercicio": "5b2d8fcf8e7f240004977e7c",
  "dataInicial": {
    "$date": "2018-06-25T10:57:32.092Z"
  }
},{
  "_id": {
    "$oid": "5b30cb23f725fb0004194626"
  },
  "idUsuario": "5b30ca56f725fb0004194623",
  "idExercicio": "5b2d905b8e7f240004977e7e",
  "dataInicial": {
    "$date": "2018-06-25T10:59:46.797Z"
  }
},{
  "_id": {
    "$oid": "5b30cb52f725fb0004194627"
  },
  "idUsuario": "5b30ca56f725fb0004194623",
  "idExercicio": "5b2eb6b33ebaa50004e95fcb",
  "dataInicial": {
    "$date": "2018-06-25T11:00:34.324Z"
  }
},{
  "_id": {
    "$oid": "5b30cbd8f725fb0004194628"
  },
  "idUsuario": "5b30ca56f725fb0004194623",
  "idExercicio": "5b2d90e98e7f240004977e81",
  "dataInicial": {
    "$date": "2018-06-25T11:02:47.951Z"
  }
},{
  "_id": {
    "$oid": "5b30e6fa8a047000044acc55"
  },
  "idUsuario": "5b30e6618a047000044acc54",
  "idExercicio": "5b2ecb873ebaa50004e95fda",
  "dataInicial": {
    "$date": "2018-06-25T12:58:33.977Z"
  }
},{
  "_id": {
    "$oid": "5b310042474e6f0004cc000d"
  },
  "idUsuario": "5b2c02280138170004fe9f04",
  "idExercicio": "5b2eb6b33ebaa50004e95fcb",
  "dataInicial": {
    "$date": "2018-06-25T14:46:26.611Z"
  }
},{
  "_id": {
    "$oid": "5b310ee33e5d7800044334d5"
  },
  "idUsuario": "5b2fe4a029f6c40004838c8e",
  "idExercicio": "5b2ecb873ebaa50004e95fda",
  "dataInicial": {
    "$date": "2018-06-25T15:48:47.252Z"
  }
},{
  "_id": {
    "$oid": "5b3124372f4c9200042bd870"
  },
  "idUsuario": "5b2c02ab0138170004fe9f07",
  "idExercicio": "5b2eb6b33ebaa50004e95fcb",
  "dataInicial": {
    "$date": "2018-06-25T17:20:01.883Z"
  }
},{
  "_id": {
    "$oid": "5b31243e2f4c9200042bd871"
  },
  "idUsuario": "5b2c02ab0138170004fe9f07",
  "idExercicio": "5b2eb6b33ebaa50004e95fcb",
  "dataInicial": {
    "$date": "2018-06-25T17:20:09.155Z"
  }
},{
  "_id": {
    "$oid": "5b31245d2f4c9200042bd872"
  },
  "idUsuario": "5b2c02ab0138170004fe9f07",
  "idExercicio": "5b2eb6b33ebaa50004e95fcb",
  "dataInicial": {
    "$date": "2018-06-25T17:20:39.893Z"
  }
},{
  "_id": {
    "$oid": "5b3124762f4c9200042bd873"
  },
  "idUsuario": "5b2c02ab0138170004fe9f07",
  "idExercicio": "5b2eb6b33ebaa50004e95fcb",
  "dataInicial": {
    "$date": "2018-06-25T17:21:05.642Z"
  }
},{
  "_id": {
    "$oid": "5b31247d2f4c9200042bd874"
  },
  "idUsuario": "5b2c02ab0138170004fe9f07",
  "idExercicio": "5b2eb6b33ebaa50004e95fcb",
  "dataInicial": {
    "$date": "2018-06-25T17:21:12.493Z"
  }
},{
  "_id": {
    "$oid": "5b3124812f4c9200042bd875"
  },
  "idUsuario": "5b2c02ab0138170004fe9f07",
  "idExercicio": "5b2eb6b33ebaa50004e95fcb",
  "dataInicial": {
    "$date": "2018-06-25T17:21:16.693Z"
  }
},{
  "_id": {
    "$oid": "5b3124892f4c9200042bd876"
  },
  "idUsuario": "5b2c02ab0138170004fe9f07",
  "idExercicio": "5b2eb6b33ebaa50004e95fcb",
  "dataInicial": {
    "$date": "2018-06-25T17:21:24.348Z"
  }
},{
  "_id": {
    "$oid": "5b3124a72f4c9200042bd877"
  },
  "idUsuario": "5b2c02ab0138170004fe9f07",
  "idExercicio": "5b2d8fcf8e7f240004977e7c",
  "dataInicial": {
    "$date": "2018-06-25T17:21:54.455Z"
  }
},{
  "_id": {
    "$oid": "5b3124b12f4c9200042bd878"
  },
  "idUsuario": "5b2c02ab0138170004fe9f07",
  "idExercicio": "5b2d905b8e7f240004977e7e",
  "dataInicial": {
    "$date": "2018-06-25T17:22:04.587Z"
  }
},{
  "_id": {
    "$oid": "5b3124b52f4c9200042bd879"
  },
  "idUsuario": "5b2c02ab0138170004fe9f07",
  "idExercicio": "5b2d905b8e7f240004977e7e",
  "dataInicial": {
    "$date": "2018-06-25T17:22:08.867Z"
  }
},{
  "_id": {
    "$oid": "5b3124ba2f4c9200042bd87a"
  },
  "idUsuario": "5b2c02ab0138170004fe9f07",
  "idExercicio": "5b2d905b8e7f240004977e7e",
  "dataInicial": {
    "$date": "2018-06-25T17:22:12.872Z"
  }
},{
  "_id": {
    "$oid": "5b3124bd2f4c9200042bd87b"
  },
  "idUsuario": "5b2c02ab0138170004fe9f07",
  "idExercicio": "5b2d905b8e7f240004977e7e",
  "dataInicial": {
    "$date": "2018-06-25T17:22:16.656Z"
  }
},{
  "_id": {
    "$oid": "5b3124cb2f4c9200042bd87c"
  },
  "idUsuario": "5b2c02ab0138170004fe9f07",
  "idExercicio": "5b2eb9cd3ebaa50004e95fcf",
  "dataInicial": {
    "$date": "2018-06-25T17:22:30.805Z"
  }
},{
  "_id": {
    "$oid": "5b3124d02f4c9200042bd87d"
  },
  "idUsuario": "5b2c02ab0138170004fe9f07",
  "idExercicio": "5b2eb9cd3ebaa50004e95fcf",
  "dataInicial": {
    "$date": "2018-06-25T17:22:35.083Z"
  }
},{
  "_id": {
    "$oid": "5b3125012f4c9200042bd87e"
  },
  "idUsuario": "5b2c02ab0138170004fe9f07",
  "idExercicio": "5b2ed0853ebaa50004e95fdc",
  "dataInicial": {
    "$date": "2018-06-25T17:23:24.624Z"
  }
},{
  "_id": {
    "$oid": "5b3125112f4c9200042bd87f"
  },
  "idUsuario": "5b2c02ab0138170004fe9f07",
  "idExercicio": "5b2d913b8e7f240004977e83",
  "dataInicial": {
    "$date": "2018-06-25T17:23:40.658Z"
  }
},{
  "_id": {
    "$oid": "5b31251f2f4c9200042bd880"
  },
  "idUsuario": "5b2c02ab0138170004fe9f07",
  "idExercicio": "5b2ed2443ebaa50004e95fde",
  "dataInicial": {
    "$date": "2018-06-25T17:23:53.922Z"
  }
},{
  "_id": {
    "$oid": "5b312e9819a4f00004eea583"
  },
  "idUsuario": "5b2c02ab0138170004fe9f07",
  "idExercicio": "5b2d913b8e7f240004977e83",
  "dataInicial": {
    "$date": "2018-06-25T18:04:08.436Z"
  }
},{
  "_id": {
    "$oid": "5b313d7919a4f00004eea585"
  },
  "idUsuario": "5b313cef19a4f00004eea584",
  "idExercicio": "5b2eb6b33ebaa50004e95fcb",
  "dataInicial": {
    "$date": "2018-06-25T19:07:37.405Z"
  }
},{
  "_id": {
    "$oid": "5b3140fb19a4f00004eea588"
  },
  "idUsuario": "5b313fe719a4f00004eea586",
  "idExercicio": "5b2d90248e7f240004977e7d",
  "dataInicial": {
    "$date": "2018-06-25T19:23:11.403Z"
  }
},{
  "_id": {
    "$oid": "5b31424119a4f00004eea58a"
  },
  "idUsuario": "5b313fe719a4f00004eea586",
  "idExercicio": "5b2d905b8e7f240004977e7e",
  "dataInicial": {
    "$date": "2018-06-25T19:28:35.611Z"
  }
},{
  "_id": {
    "$oid": "5b31426c19a4f00004eea58b"
  },
  "idUsuario": "5b31423319a4f00004eea589",
  "idExercicio": "5b2ecb873ebaa50004e95fda",
  "dataInicial": {
    "$date": "2018-06-25T19:28:44.839Z"
  }
},{
  "_id": {
    "$oid": "5b31433719a4f00004eea58c"
  },
  "idUsuario": "5b31423319a4f00004eea589",
  "idExercicio": "5b2d90248e7f240004977e7d",
  "dataInicial": {
    "$date": "2018-06-25T19:32:07.990Z"
  }
},{
  "_id": {
    "$oid": "5b3143a919a4f00004eea58d"
  },
  "idUsuario": "5b31423319a4f00004eea589",
  "idExercicio": "5b2ecb873ebaa50004e95fda",
  "dataInicial": {
    "$date": "2018-06-25T19:34:02.142Z"
  }
},{
  "_id": {
    "$oid": "5b3143ae19a4f00004eea58e"
  },
  "idUsuario": "5b31423319a4f00004eea589",
  "idExercicio": "5b2d90248e7f240004977e7d",
  "dataInicial": {
    "$date": "2018-06-25T19:34:07.209Z"
  }
},{
  "_id": {
    "$oid": "5b3144e319a4f00004eea58f"
  },
  "idUsuario": "5b313fe719a4f00004eea586",
  "idExercicio": "5b2ed0853ebaa50004e95fdc",
  "dataInicial": {
    "$date": "2018-06-25T19:39:51.959Z"
  }
},{
  "_id": {
    "$oid": "5b31451519a4f00004eea590"
  },
  "idUsuario": "5b31423319a4f00004eea589",
  "idExercicio": "5b2d905b8e7f240004977e7e",
  "dataInicial": {
    "$date": "2018-06-25T19:40:06.557Z"
  }
},{
  "_id": {
    "$oid": "5b31453919a4f00004eea592"
  },
  "idUsuario": "5b31423319a4f00004eea589",
  "idExercicio": "5b2d913b8e7f240004977e83",
  "dataInicial": {
    "$date": "2018-06-25T19:40:42.535Z"
  }
},{
  "_id": {
    "$oid": "5b31454519a4f00004eea593"
  },
  "idUsuario": "5b31423319a4f00004eea589",
  "idExercicio": "5b2d908f8e7f240004977e7f",
  "dataInicial": {
    "$date": "2018-06-25T19:40:54.672Z"
  }
},{
  "_id": {
    "$oid": "5b31454919a4f00004eea594"
  },
  "idUsuario": "5b313fe719a4f00004eea586",
  "idExercicio": "5b2d908f8e7f240004977e7f",
  "dataInicial": {
    "$date": "2018-06-25T19:41:33.866Z"
  }
},{
  "_id": {
    "$oid": "5b31457619a4f00004eea595"
  },
  "idUsuario": "5b31453719a4f00004eea591",
  "idExercicio": "5b2ecb873ebaa50004e95fda",
  "dataInicial": {
    "$date": "2018-06-25T19:41:41.831Z"
  }
},{
  "_id": {
    "$oid": "5b3146ab19a4f00004eea596"
  },
  "idUsuario": "5b313fe719a4f00004eea586",
  "idExercicio": "5b2d911b8e7f240004977e82",
  "dataInicial": {
    "$date": "2018-06-25T19:47:26.148Z"
  }
},{
  "_id": {
    "$oid": "5b3146b019a4f00004eea597"
  },
  "idUsuario": "5b31423319a4f00004eea589",
  "idExercicio": "5b2ed0853ebaa50004e95fdc",
  "dataInicial": {
    "$date": "2018-06-25T19:46:57.257Z"
  }
},{
  "_id": {
    "$oid": "5b3146f719a4f00004eea598"
  },
  "idUsuario": "5b313fe719a4f00004eea586",
  "idExercicio": "5b2ed0853ebaa50004e95fdc",
  "dataInicial": {
    "$date": "2018-06-25T19:48:42.754Z"
  }
},{
  "_id": {
    "$oid": "5b31495719a4f00004eea599"
  },
  "idUsuario": "5b313fe719a4f00004eea586",
  "idExercicio": "5b2d8fcf8e7f240004977e7c",
  "dataInicial": {
    "$date": "2018-06-25T19:58:49.097Z"
  }
},{
  "_id": {
    "$oid": "5b3149d119a4f00004eea59a"
  },
  "idUsuario": "5b313fe719a4f00004eea586",
  "idExercicio": "5b2d90248e7f240004977e7d",
  "dataInicial": {
    "$date": "2018-06-25T20:00:52.253Z"
  }
},{
  "_id": {
    "$oid": "5b314ad019a4f00004eea59b"
  },
  "idUsuario": "5b313fe719a4f00004eea586",
  "idExercicio": "5b2eb6b33ebaa50004e95fcb",
  "dataInicial": {
    "$date": "2018-06-25T20:05:07.020Z"
  }
},{
  "_id": {
    "$oid": "5b314ba819a4f00004eea59c"
  },
  "idUsuario": "5b313fe719a4f00004eea586",
  "idExercicio": "5b2d913b8e7f240004977e83",
  "dataInicial": {
    "$date": "2018-06-25T20:08:44.539Z"
  }
},{
  "_id": {
    "$oid": "5b314c1719a4f00004eea59d"
  },
  "idUsuario": "5b313fe719a4f00004eea586",
  "idExercicio": "5b2ed0853ebaa50004e95fdc",
  "dataInicial": {
    "$date": "2018-06-25T20:10:35.818Z"
  }
},{
  "_id": {
    "$oid": "5b314e0919a4f00004eea59e"
  },
  "idUsuario": "5b313fe719a4f00004eea586",
  "idExercicio": "5b2ed2443ebaa50004e95fde",
  "dataInicial": {
    "$date": "2018-06-25T20:18:53.388Z"
  }
},{
  "_id": {
    "$oid": "5b314eb919a4f00004eea59f"
  },
  "idUsuario": "5b313fe719a4f00004eea586",
  "idExercicio": "5b2d90e98e7f240004977e81",
  "dataInicial": {
    "$date": "2018-06-25T20:21:49.603Z"
  }
},{
  "_id": {
    "$oid": "5b31a562e51c43000455c3ee"
  },
  "idUsuario": "5b2c02ab0138170004fe9f07",
  "idExercicio": "5b2d8fcf8e7f240004977e7c",
  "dataInicial": {
    "$date": "2018-06-26T02:31:12.402Z"
  }
},{
  "_id": {
    "$oid": "5b31a580e51c43000455c3ef"
  },
  "idUsuario": "5b2c02ab0138170004fe9f07",
  "idExercicio": "5b2eb6b33ebaa50004e95fcb",
  "dataInicial": {
    "$date": "2018-06-26T02:31:41.416Z"
  }
},{
  "_id": {
    "$oid": "5b31a5a2e51c43000455c3f0"
  },
  "idUsuario": "5b31a559e51c43000455c3ed",
  "idExercicio": "5b2d905b8e7f240004977e7e",
  "dataInicial": {
    "$date": "2018-06-26T02:32:01.645Z"
  }
},{
  "_id": {
    "$oid": "5b31a5a6e51c43000455c3f1"
  },
  "idUsuario": "5b2c02ab0138170004fe9f07",
  "idExercicio": "5b2d905b8e7f240004977e7e",
  "dataInicial": {
    "$date": "2018-06-26T02:32:19.902Z"
  }
},{
  "_id": {
    "$oid": "5b31a633e51c43000455c3f2"
  },
  "idUsuario": "5b31a559e51c43000455c3ed",
  "idExercicio": "5b2ecb873ebaa50004e95fda",
  "dataInicial": {
    "$date": "2018-06-26T02:34:26.376Z"
  }
},{
  "_id": {
    "$oid": "5b31a63de51c43000455c3f3"
  },
  "idUsuario": "5b31a559e51c43000455c3ed",
  "idExercicio": "5b2d908f8e7f240004977e7f",
  "dataInicial": {
    "$date": "2018-06-26T02:34:36.333Z"
  }
},{
  "_id": {
    "$oid": "5b31a643e51c43000455c3f4"
  },
  "idUsuario": "5b31a559e51c43000455c3ed",
  "idExercicio": "5b2d90c08e7f240004977e80",
  "dataInicial": {
    "$date": "2018-06-26T02:34:42.458Z"
  }
},{
  "_id": {
    "$oid": "5b31abbfe51c43000455c3f6"
  },
  "idUsuario": "5b31a559e51c43000455c3ed",
  "idExercicio": "5b2d913b8e7f240004977e83",
  "dataInicial": {
    "$date": "2018-06-26T02:58:06.090Z"
  }
},{
  "_id": {
    "$oid": "5b31abd0e51c43000455c3f7"
  },
  "idUsuario": "5b31a559e51c43000455c3ed",
  "idExercicio": "5b2d90e98e7f240004977e81",
  "dataInicial": {
    "$date": "2018-06-26T02:58:24.018Z"
  }
},{
  "_id": {
    "$oid": "5b31ac80e51c43000455c3f9"
  },
  "idUsuario": "5b31ac69e51c43000455c3f8",
  "idExercicio": "5b2ecb873ebaa50004e95fda",
  "dataInicial": {
    "$date": "2018-06-26T03:01:20.674Z"
  }
},{
  "_id": {
    "$oid": "5b31ace5e51c43000455c3fa"
  },
  "idUsuario": "5b31ac69e51c43000455c3f8",
  "idExercicio": "5b2d8fcf8e7f240004977e7c",
  "dataInicial": {
    "$date": "2018-06-26T03:03:00.483Z"
  }
},{
  "_id": {
    "$oid": "5b31ad17e51c43000455c3fb"
  },
  "idUsuario": "5b31ac69e51c43000455c3f8",
  "idExercicio": "5b2eb6b33ebaa50004e95fcb",
  "dataInicial": {
    "$date": "2018-06-26T03:03:51.717Z"
  }
},{
  "_id": {
    "$oid": "5b31ada1e51c43000455c3fc"
  },
  "idUsuario": "5b31ac69e51c43000455c3f8",
  "idExercicio": "5b2ec5f23ebaa50004e95fd7",
  "dataInicial": {
    "$date": "2018-06-26T03:06:08.991Z"
  }
},{
  "_id": {
    "$oid": "5b31ae83e51c43000455c3fe"
  },
  "idUsuario": "5b31ae36e51c43000455c3fd",
  "idExercicio": "5b2d913b8e7f240004977e83",
  "dataInicial": {
    "$date": "2018-06-26T03:12:51.155Z"
  }
},{
  "_id": {
    "$oid": "5b31ae93e51c43000455c3ff"
  },
  "idUsuario": "5b31ac69e51c43000455c3f8",
  "idExercicio": "5b2ec5f23ebaa50004e95fd7",
  "dataInicial": {
    "$date": "2018-06-26T03:10:11.448Z"
  }
},{
  "_id": {
    "$oid": "5b31aeb1e51c43000455c400"
  },
  "idUsuario": "5b31ac69e51c43000455c3f8",
  "idExercicio": "5b2d905b8e7f240004977e7e",
  "dataInicial": {
    "$date": "2018-06-26T03:10:41.221Z"
  }
},{
  "_id": {
    "$oid": "5b31aecfe51c43000455c401"
  },
  "idUsuario": "5b31ac69e51c43000455c3f8",
  "idExercicio": "5b2d90248e7f240004977e7d",
  "dataInicial": {
    "$date": "2018-06-26T03:11:10.984Z"
  }
},{
  "_id": {
    "$oid": "5b31af62e51c43000455c402"
  },
  "idUsuario": "5b31ac69e51c43000455c3f8",
  "idExercicio": "5b2d90e98e7f240004977e81",
  "dataInicial": {
    "$date": "2018-06-26T03:13:37.563Z"
  }
},{
  "_id": {
    "$oid": "5b31b001e51c43000455c403"
  },
  "idUsuario": "5b31ac69e51c43000455c3f8",
  "idExercicio": "5b2eb9cd3ebaa50004e95fcf",
  "dataInicial": {
    "$date": "2018-06-26T03:16:17.158Z"
  }
},{
  "_id": {
    "$oid": "5b31b061e51c43000455c404"
  },
  "idUsuario": "5b31ac69e51c43000455c3f8",
  "idExercicio": "5b2d911b8e7f240004977e82",
  "dataInicial": {
    "$date": "2018-06-26T03:17:53.219Z"
  }
},{
  "_id": {
    "$oid": "5b31b3b8e51c43000455c405"
  },
  "idUsuario": "5b31ae36e51c43000455c3fd",
  "idExercicio": "5b2ecb873ebaa50004e95fda",
  "dataInicial": {
    "$date": "2018-06-26T03:35:03.703Z"
  }
},{
  "_id": {
    "$oid": "5b31b673e51c43000455c406"
  },
  "idUsuario": "5b31ae36e51c43000455c3fd",
  "idExercicio": "5b2ecb873ebaa50004e95fda",
  "dataInicial": {
    "$date": "2018-06-26T03:46:40.938Z"
  }
},{
  "_id": {
    "$oid": "5b31cf02bf5ed30004a9f8d4"
  },
  "idUsuario": "5b2c02ab0138170004fe9f07",
  "idExercicio": "5b2d90c08e7f240004977e80",
  "dataInicial": {
    "$date": "2018-06-26T05:28:49.156Z"
  }
},{
  "_id": {
    "$oid": "5b31d094bf5ed30004a9f8d5"
  },
  "idUsuario": "5b2c02ab0138170004fe9f07",
  "idExercicio": "5b2d90c08e7f240004977e80",
  "dataInicial": {
    "$date": "2018-06-26T05:35:30.827Z"
  }
},{
  "_id": {
    "$oid": "5b31d099bf5ed30004a9f8d6"
  },
  "idUsuario": "5b2c02ab0138170004fe9f07",
  "idExercicio": "5b2ecb873ebaa50004e95fda",
  "dataInicial": {
    "$date": "2018-06-26T05:35:35.424Z"
  }
},{
  "_id": {
    "$oid": "5b31d0a0bf5ed30004a9f8d7"
  },
  "idUsuario": "5b2c02ab0138170004fe9f07",
  "idExercicio": "5b2d908f8e7f240004977e7f",
  "dataInicial": {
    "$date": "2018-06-26T05:35:42.441Z"
  }
},{
  "_id": {
    "$oid": "5b31d0bdbf5ed30004a9f8d8"
  },
  "idUsuario": "5b2c02ab0138170004fe9f07",
  "idExercicio": "5b2ecb873ebaa50004e95fda",
  "dataInicial": {
    "$date": "2018-06-26T05:36:11.299Z"
  }
},{
  "_id": {
    "$oid": "5b31d0c3bf5ed30004a9f8d9"
  },
  "idUsuario": "5b2c02ab0138170004fe9f07",
  "idExercicio": "5b2d908f8e7f240004977e7f",
  "dataInicial": {
    "$date": "2018-06-26T05:36:17.692Z"
  }
},{
  "_id": {
    "$oid": "5b31d0c8bf5ed30004a9f8da"
  },
  "idUsuario": "5b2c02ab0138170004fe9f07",
  "idExercicio": "5b2d90c08e7f240004977e80",
  "dataInicial": {
    "$date": "2018-06-26T05:36:22.644Z"
  }
},{
  "_id": {
    "$oid": "5b31d0ccbf5ed30004a9f8db"
  },
  "idUsuario": "5b2c02ab0138170004fe9f07",
  "idExercicio": "5b2d913b8e7f240004977e83",
  "dataInicial": {
    "$date": "2018-06-26T05:36:26.728Z"
  }
},{
  "_id": {
    "$oid": "5b31d0ebbf5ed30004a9f8dc"
  },
  "idUsuario": "5b2c02ab0138170004fe9f07",
  "idExercicio": "5b2d90c08e7f240004977e80",
  "dataInicial": {
    "$date": "2018-06-26T05:36:57.481Z"
  }
},{
  "_id": {
    "$oid": "5b31d0f1bf5ed30004a9f8dd"
  },
  "idUsuario": "5b2c02ab0138170004fe9f07",
  "idExercicio": "5b2ed0853ebaa50004e95fdc",
  "dataInicial": {
    "$date": "2018-06-26T05:37:03.946Z"
  }
},{
  "_id": {
    "$oid": "5b31d0f7bf5ed30004a9f8de"
  },
  "idUsuario": "5b2c02ab0138170004fe9f07",
  "idExercicio": "5b2ed0853ebaa50004e95fdc",
  "dataInicial": {
    "$date": "2018-06-26T05:37:09.823Z"
  }
},{
  "_id": {
    "$oid": "5b31d0fcbf5ed30004a9f8df"
  },
  "idUsuario": "5b2c02ab0138170004fe9f07",
  "idExercicio": "5b2d91658e7f240004977e84",
  "dataInicial": {
    "$date": "2018-06-26T05:37:15.405Z"
  }
},{
  "_id": {
    "$oid": "5b31d141bf5ed30004a9f8e0"
  },
  "idUsuario": "5b2c02ab0138170004fe9f07",
  "idExercicio": "5b2ed2443ebaa50004e95fde",
  "dataInicial": {
    "$date": "2018-06-26T05:38:22.819Z"
  }
},{
  "_id": {
    "$oid": "5b31d147bf5ed30004a9f8e1"
  },
  "idUsuario": "5b2c02ab0138170004fe9f07",
  "idExercicio": "5b2d911b8e7f240004977e82",
  "dataInicial": {
    "$date": "2018-06-26T05:38:29.600Z"
  }
},{
  "_id": {
    "$oid": "5b31d161bf5ed30004a9f8e2"
  },
  "idUsuario": "5b2c02ab0138170004fe9f07",
  "idExercicio": "5b2d911b8e7f240004977e82",
  "dataInicial": {
    "$date": "2018-06-26T05:38:55.949Z"
  }
},{
  "_id": {
    "$oid": "5b31d168bf5ed30004a9f8e3"
  },
  "idUsuario": "5b2c02ab0138170004fe9f07",
  "idExercicio": "5b2d90e98e7f240004977e81",
  "dataInicial": {
    "$date": "2018-06-26T05:39:02.284Z"
  }
},{
  "_id": {
    "$oid": "5b31d170bf5ed30004a9f8e4"
  },
  "idUsuario": "5b2c02ab0138170004fe9f07",
  "idExercicio": "5b2eb9cd3ebaa50004e95fcf",
  "dataInicial": {
    "$date": "2018-06-26T05:39:10.428Z"
  }
},{
  "_id": {
    "$oid": "5b31d17ebf5ed30004a9f8e5"
  },
  "idUsuario": "5b2c02ab0138170004fe9f07",
  "idExercicio": "5b2d913b8e7f240004977e83",
  "dataInicial": {
    "$date": "2018-06-26T05:39:24.567Z"
  }
},{
  "_id": {
    "$oid": "5b31d1a7bf5ed30004a9f8e6"
  },
  "idUsuario": "5b2c02ab0138170004fe9f07",
  "idExercicio": "5b2ecb873ebaa50004e95fda",
  "dataInicial": {
    "$date": "2018-06-26T05:40:05.745Z"
  }
},{
  "_id": {
    "$oid": "5b31d1dcbf5ed30004a9f8e7"
  },
  "idUsuario": "5b2c02ab0138170004fe9f07",
  "idExercicio": "5b2d8fcf8e7f240004977e7c",
  "dataInicial": {
    "$date": "2018-06-26T05:40:57.896Z"
  }
},{
  "_id": {
    "$oid": "5b31d349bf5ed30004a9f8e9"
  },
  "idUsuario": "5b31d2c5bf5ed30004a9f8e8",
  "idExercicio": "5b2d905b8e7f240004977e7e",
  "dataInicial": {
    "$date": "2018-06-26T05:46:43.764Z"
  }
},{
  "_id": {
    "$oid": "5b3231071bb44e0004fccd1a"
  },
  "idUsuario": "5b3230dc1bb44e0004fccd19",
  "idExercicio": "5b2ecb873ebaa50004e95fda",
  "dataInicial": {
    "$date": "2018-06-26T12:26:47.682Z"
  }
},{
  "_id": {
    "$oid": "5b3232be1bb44e0004fccd1b"
  },
  "idUsuario": "5b3230dc1bb44e0004fccd19",
  "idExercicio": "5b2d908f8e7f240004977e7f",
  "dataInicial": {
    "$date": "2018-06-26T12:34:05.951Z"
  }
},{
  "_id": {
    "$oid": "5b32350b1bb44e0004fccd1c"
  },
  "idUsuario": "5b3230dc1bb44e0004fccd19",
  "idExercicio": "5b2d90c08e7f240004977e80",
  "dataInicial": {
    "$date": "2018-06-26T12:43:55.602Z"
  }
},{
  "_id": {
    "$oid": "5b3236671bb44e0004fccd1d"
  },
  "idUsuario": "5b3230dc1bb44e0004fccd19",
  "idExercicio": "5b2d911b8e7f240004977e82",
  "dataInicial": {
    "$date": "2018-06-26T12:49:43.313Z"
  }
},{
  "_id": {
    "$oid": "5b3236981bb44e0004fccd1e"
  },
  "idUsuario": "5b3230dc1bb44e0004fccd19",
  "idExercicio": "5b2d90248e7f240004977e7d",
  "dataInicial": {
    "$date": "2018-06-26T12:50:32.065Z"
  }
},{
  "_id": {
    "$oid": "5b3236f31bb44e0004fccd1f"
  },
  "idUsuario": "5b3230dc1bb44e0004fccd19",
  "idExercicio": "5b2d90e98e7f240004977e81",
  "dataInicial": {
    "$date": "2018-06-26T12:52:02.993Z"
  }
},{
  "_id": {
    "$oid": "5b32376d1bb44e0004fccd20"
  },
  "idUsuario": "5b3230dc1bb44e0004fccd19",
  "idExercicio": "5b2eb9cd3ebaa50004e95fcf",
  "dataInicial": {
    "$date": "2018-06-26T12:54:04.927Z"
  }
},{
  "_id": {
    "$oid": "5b3238021bb44e0004fccd21"
  },
  "idUsuario": "5b3230dc1bb44e0004fccd19",
  "idExercicio": "5b2d905b8e7f240004977e7e",
  "dataInicial": {
    "$date": "2018-06-26T12:56:34.573Z"
  }
},{
  "_id": {
    "$oid": "5b3238221bb44e0004fccd22"
  },
  "idUsuario": "5b3230dc1bb44e0004fccd19",
  "idExercicio": "5b2eb6b33ebaa50004e95fcb",
  "dataInicial": {
    "$date": "2018-06-26T12:57:06.285Z"
  }
},{
  "_id": {
    "$oid": "5b32383c1bb44e0004fccd23"
  },
  "idUsuario": "5b3230dc1bb44e0004fccd19",
  "idExercicio": "5b2d8fcf8e7f240004977e7c",
  "dataInicial": {
    "$date": "2018-06-26T12:57:32.749Z"
  }
},{
  "_id": {
    "$oid": "5b32385a1bb44e0004fccd24"
  },
  "idUsuario": "5b3230dc1bb44e0004fccd19",
  "idExercicio": "5b2ebb763ebaa50004e95fd1",
  "dataInicial": {
    "$date": "2018-06-26T12:58:02.540Z"
  }
},{
  "_id": {
    "$oid": "5b3238981bb44e0004fccd25"
  },
  "idUsuario": "5b3230dc1bb44e0004fccd19",
  "idExercicio": "5b2d913b8e7f240004977e83",
  "dataInicial": {
    "$date": "2018-06-26T12:59:04.646Z"
  }
},{
  "_id": {
    "$oid": "5b3239bb1bb44e0004fccd26"
  },
  "idUsuario": "5b3230dc1bb44e0004fccd19",
  "idExercicio": "5b2ed5643ebaa50004e95fe0",
  "dataInicial": {
    "$date": "2018-06-26T13:03:55.308Z"
  }
},{
  "_id": {
    "$oid": "5b323cf81bb44e0004fccd27"
  },
  "idUsuario": "5b3230dc1bb44e0004fccd19",
  "idExercicio": "5b2ed5643ebaa50004e95fe0",
  "dataInicial": {
    "$date": "2018-06-26T13:17:44.690Z"
  }
},{
  "_id": {
    "$oid": "5b32407f1bb44e0004fccd28"
  },
  "idUsuario": "5b2fe4a029f6c40004838c8e",
  "idExercicio": "5b2d908f8e7f240004977e7f",
  "dataInicial": {
    "$date": "2018-06-26T13:32:48.200Z"
  }
},{
  "_id": {
    "$oid": "5b3243dd1bb44e0004fccd29"
  },
  "idUsuario": "5b31ac69e51c43000455c3f8",
  "idExercicio": "5b2ebb763ebaa50004e95fd1",
  "dataInicial": {
    "$date": "2018-06-26T13:47:08.897Z"
  }
},{
  "_id": {
    "$oid": "5b32441e1bb44e0004fccd2a"
  },
  "idUsuario": "5b31ac69e51c43000455c3f8",
  "idExercicio": "5b2ed2443ebaa50004e95fde",
  "dataInicial": {
    "$date": "2018-06-26T13:48:14.419Z"
  }
},{
  "_id": {
    "$oid": "5b32447c1bb44e0004fccd2b"
  },
  "idUsuario": "5b2c02ab0138170004fe9f07",
  "idExercicio": "5b2ebb763ebaa50004e95fd1",
  "dataInicial": {
    "$date": "2018-06-26T13:50:05.533Z"
  }
},{
  "_id": {
    "$oid": "5b3244b61bb44e0004fccd2c"
  },
  "idUsuario": "5b31ac69e51c43000455c3f8",
  "idExercicio": "5b2ed0853ebaa50004e95fdc",
  "dataInicial": {
    "$date": "2018-06-26T13:50:46.251Z"
  }
},{
  "_id": {
    "$oid": "5b3244fc1bb44e0004fccd2d"
  },
  "idUsuario": "5b31ac69e51c43000455c3f8",
  "idExercicio": "5b2d913b8e7f240004977e83",
  "dataInicial": {
    "$date": "2018-06-26T13:51:56.819Z"
  }
},{
  "_id": {
    "$oid": "5b3245211bb44e0004fccd2e"
  },
  "idUsuario": "5b2c02ab0138170004fe9f07",
  "idExercicio": "5b2d8fcf8e7f240004977e7c",
  "dataInicial": {
    "$date": "2018-06-26T13:52:50.658Z"
  }
},{
  "_id": {
    "$oid": "5b3245391bb44e0004fccd2f"
  },
  "idUsuario": "5b2c02ab0138170004fe9f07",
  "idExercicio": "5b2d8fcf8e7f240004977e7c",
  "dataInicial": {
    "$date": "2018-06-26T13:53:14.024Z"
  }
},{
  "_id": {
    "$oid": "5b3245401bb44e0004fccd30"
  },
  "idUsuario": "5b2c02ab0138170004fe9f07",
  "idExercicio": "5b2d8fcf8e7f240004977e7c",
  "dataInicial": {
    "$date": "2018-06-26T13:53:21.572Z"
  }
},{
  "_id": {
    "$oid": "5b3245541bb44e0004fccd31"
  },
  "idUsuario": "5b2c02ab0138170004fe9f07",
  "idExercicio": "5b2d8fcf8e7f240004977e7c",
  "dataInicial": {
    "$date": "2018-06-26T13:53:41.012Z"
  }
},{
  "_id": {
    "$oid": "5b3245621bb44e0004fccd32"
  },
  "idUsuario": "5b2c02ab0138170004fe9f07",
  "idExercicio": "5b2d8fcf8e7f240004977e7c",
  "dataInicial": {
    "$date": "2018-06-26T13:53:54.892Z"
  }
},{
  "_id": {
    "$oid": "5b3245681bb44e0004fccd33"
  },
  "idUsuario": "5b2c02ab0138170004fe9f07",
  "idExercicio": "5b2d8fcf8e7f240004977e7c",
  "dataInicial": {
    "$date": "2018-06-26T13:54:01.595Z"
  }
},{
  "_id": {
    "$oid": "5b3245711bb44e0004fccd34"
  },
  "idUsuario": "5b2c02ab0138170004fe9f07",
  "idExercicio": "5b2d8fcf8e7f240004977e7c",
  "dataInicial": {
    "$date": "2018-06-26T13:54:10.050Z"
  }
},{
  "_id": {
    "$oid": "5b3245af1bb44e0004fccd35"
  },
  "idUsuario": "5b31ac69e51c43000455c3f8",
  "idExercicio": "5b2d90c08e7f240004977e80",
  "dataInicial": {
    "$date": "2018-06-26T13:54:55.090Z"
  }
},{
  "_id": {
    "$oid": "5b3246441bb44e0004fccd36"
  },
  "idUsuario": "5b31ac69e51c43000455c3f8",
  "idExercicio": "5b2d908f8e7f240004977e7f",
  "dataInicial": {
    "$date": "2018-06-26T13:57:24.125Z"
  }
},{
  "_id": {
    "$oid": "5b3247251bb44e0004fccd37"
  },
  "idUsuario": "5b31ac69e51c43000455c3f8",
  "idExercicio": "5b2ecb873ebaa50004e95fda",
  "dataInicial": {
    "$date": "2018-06-26T14:01:09.876Z"
  }
},{
  "_id": {
    "$oid": "5b3247bf1bb44e0004fccd38"
  },
  "idUsuario": "5b31ac69e51c43000455c3f8",
  "idExercicio": "5b2ecb873ebaa50004e95fda",
  "dataInicial": {
    "$date": "2018-06-26T14:03:43.581Z"
  }
},{
  "_id": {
    "$oid": "5b3247f51bb44e0004fccd39"
  },
  "idUsuario": "5b3230dc1bb44e0004fccd19",
  "idExercicio": "5b2ed5643ebaa50004e95fe0",
  "dataInicial": {
    "$date": "2018-06-26T14:04:37.811Z"
  }
},{
  "_id": {
    "$oid": "5b3247fa1bb44e0004fccd3a"
  },
  "idUsuario": "5b31ac69e51c43000455c3f8",
  "idExercicio": "5b2ed5643ebaa50004e95fe0",
  "dataInicial": {
    "$date": "2018-06-26T14:04:42.082Z"
  }
},{
  "_id": {
    "$oid": "5b3248171bb44e0004fccd3b"
  },
  "idUsuario": "5b3230dc1bb44e0004fccd19",
  "idExercicio": "5b2ec5f23ebaa50004e95fd7",
  "dataInicial": {
    "$date": "2018-06-26T14:05:11.678Z"
  }
},{
  "_id": {
    "$oid": "5b3248561bb44e0004fccd3c"
  },
  "idUsuario": "5b3230dc1bb44e0004fccd19",
  "idExercicio": "5b2d91658e7f240004977e84",
  "dataInicial": {
    "$date": "2018-06-26T14:06:14.447Z"
  }
},{
  "_id": {
    "$oid": "5b3248db1bb44e0004fccd3d"
  },
  "idUsuario": "5b3230dc1bb44e0004fccd19",
  "idExercicio": "5b2ed0853ebaa50004e95fdc",
  "dataInicial": {
    "$date": "2018-06-26T14:08:26.948Z"
  }
},{
  "_id": {
    "$oid": "5b3249421bb44e0004fccd3e"
  },
  "idUsuario": "5b3230dc1bb44e0004fccd19",
  "idExercicio": "5b2ed2443ebaa50004e95fde",
  "dataInicial": {
    "$date": "2018-06-26T14:10:10.859Z"
  }
},{
  "_id": {
    "$oid": "5b324ac41bb44e0004fccd3f"
  },
  "idUsuario": "5b3230dc1bb44e0004fccd19",
  "idExercicio": "5b2ecb873ebaa50004e95fda",
  "dataInicial": {
    "$date": "2018-06-26T14:16:35.696Z"
  }
},{
  "_id": {
    "$oid": "5b324ad61bb44e0004fccd40"
  },
  "idUsuario": "5b31ac69e51c43000455c3f8",
  "idExercicio": "5b2ed5643ebaa50004e95fe0",
  "dataInicial": {
    "$date": "2018-06-26T14:16:54.729Z"
  }
},{
  "_id": {
    "$oid": "5b324e4c1bb44e0004fccd42"
  },
  "idUsuario": "5b324df31bb44e0004fccd41",
  "idExercicio": "5b2ecb873ebaa50004e95fda",
  "dataInicial": {
    "$date": "2018-06-26T14:31:36.632Z"
  }
},{
  "_id": {
    "$oid": "5b32516a1bb44e0004fccd43"
  },
  "idUsuario": "5b2fe4a029f6c40004838c8e",
  "idExercicio": "5b2d908f8e7f240004977e7f",
  "dataInicial": {
    "$date": "2018-06-26T14:44:59.673Z"
  }
},{
  "_id": {
    "$oid": "5b3252081bb44e0004fccd44"
  },
  "idUsuario": "5b2fe4a029f6c40004838c8e",
  "idExercicio": "5b2d908f8e7f240004977e7f",
  "dataInicial": {
    "$date": "2018-06-26T14:47:37.582Z"
  }
},{
  "_id": {
    "$oid": "5b3253011bb44e0004fccd45"
  },
  "idUsuario": "5b2fe4a029f6c40004838c8e",
  "idExercicio": "5b2d8fcf8e7f240004977e7c",
  "dataInicial": {
    "$date": "2018-06-26T14:51:46.509Z"
  }
},{
  "_id": {
    "$oid": "5b32543b1bb44e0004fccd46"
  },
  "idUsuario": "5b2fe4a029f6c40004838c8e",
  "idExercicio": "5b2d908f8e7f240004977e7f",
  "dataInicial": {
    "$date": "2018-06-26T14:56:59.882Z"
  }
},{
  "_id": {
    "$oid": "5b3255e61bb44e0004fccd47"
  },
  "idUsuario": "5b2fe4a029f6c40004838c8e",
  "idExercicio": "5b2d8fcf8e7f240004977e7c",
  "dataInicial": {
    "$date": "2018-06-26T15:04:07.322Z"
  }
},{
  "_id": {
    "$oid": "5b3256741bb44e0004fccd48"
  },
  "idUsuario": "5b2fe4a029f6c40004838c8e",
  "idExercicio": "5b2d908f8e7f240004977e7f",
  "dataInicial": {
    "$date": "2018-06-26T15:06:29.497Z"
  }
},{
  "_id": {
    "$oid": "5b32568f1bb44e0004fccd49"
  },
  "idUsuario": "5b2fe4a029f6c40004838c8e",
  "idExercicio": "5b2eb6b33ebaa50004e95fcb",
  "dataInicial": {
    "$date": "2018-06-26T15:06:56.117Z"
  }
},{
  "_id": {
    "$oid": "5b327f81e863c0000466a8d4"
  },
  "idUsuario": "5b327e53e863c0000466a8d3",
  "idExercicio": "5b2ecb873ebaa50004e95fda",
  "dataInicial": {
    "$date": "2018-06-26T18:01:36.732Z"
  }
},{
  "_id": {
    "$oid": "5b32887b9761d60004387dd1"
  },
  "idUsuario": "5b31a559e51c43000455c3ed",
  "idExercicio": "5b2ebb763ebaa50004e95fd1",
  "dataInicial": {
    "$date": "2018-06-26T18:39:55.038Z"
  }
},{
  "_id": {
    "$oid": "5b3288929761d60004387dd2"
  },
  "idUsuario": "5b31a559e51c43000455c3ed",
  "idExercicio": "5b2d90e98e7f240004977e81",
  "dataInicial": {
    "$date": "2018-06-26T18:40:17.936Z"
  }
},{
  "_id": {
    "$oid": "5b3289cd9761d60004387dd3"
  },
  "idUsuario": "5b31a559e51c43000455c3ed",
  "idExercicio": "5b2d8fcf8e7f240004977e7c",
  "dataInicial": {
    "$date": "2018-06-26T18:45:33.055Z"
  }
},{
  "_id": {
    "$oid": "5b3289ff9761d60004387dd4"
  },
  "idUsuario": "5b31a559e51c43000455c3ed",
  "idExercicio": "5b2ec5f23ebaa50004e95fd7",
  "dataInicial": {
    "$date": "2018-06-26T18:46:22.873Z"
  }
},{
  "_id": {
    "$oid": "5b328ae69761d60004387dd5"
  },
  "idUsuario": "5b313fe719a4f00004eea586",
  "idExercicio": "5b2d90c08e7f240004977e80",
  "dataInicial": {
    "$date": "2018-06-26T18:50:14.641Z"
  }
},{
  "_id": {
    "$oid": "5b328b3e9761d60004387dd7"
  },
  "idUsuario": "5b31a559e51c43000455c3ed",
  "idExercicio": "5b2ed2443ebaa50004e95fde",
  "dataInicial": {
    "$date": "2018-06-26T18:51:41.770Z"
  }
},{
  "_id": {
    "$oid": "5b328c909761d60004387dd8"
  },
  "idUsuario": "5b31a559e51c43000455c3ed",
  "idExercicio": "5b2ed0853ebaa50004e95fdc",
  "dataInicial": {
    "$date": "2018-06-26T18:57:19.944Z"
  }
},{
  "_id": {
    "$oid": "5b328dce9761d60004387dd9"
  },
  "idUsuario": "5b2c02ab0138170004fe9f07",
  "idExercicio": "5b2ecb873ebaa50004e95fda",
  "dataInicial": {
    "$date": "2018-06-26T19:02:37.280Z"
  }
},{
  "_id": {
    "$oid": "5b328de09761d60004387dda"
  },
  "idUsuario": "5b313fe719a4f00004eea586",
  "idExercicio": "5b2d90e98e7f240004977e81",
  "dataInicial": {
    "$date": "2018-06-26T19:02:56.994Z"
  }
},{
  "_id": {
    "$oid": "5b328e0e9761d60004387ddb"
  },
  "idUsuario": "5b31ae36e51c43000455c3fd",
  "idExercicio": "5b2ecb873ebaa50004e95fda",
  "dataInicial": {
    "$date": "2018-06-26T19:06:38.805Z"
  }
},{
  "_id": {
    "$oid": "5b328e379761d60004387ddc"
  },
  "idUsuario": "5b31a559e51c43000455c3ed",
  "idExercicio": "5b2eb6b33ebaa50004e95fcb",
  "dataInicial": {
    "$date": "2018-06-26T19:04:22.540Z"
  }
},{
  "_id": {
    "$oid": "5b328e6e9761d60004387ddd"
  },
  "idUsuario": "5b31a559e51c43000455c3ed",
  "idExercicio": "5b2d90c08e7f240004977e80",
  "dataInicial": {
    "$date": "2018-06-26T19:05:17.833Z"
  }
},{
  "_id": {
    "$oid": "5b328e899761d60004387dde"
  },
  "idUsuario": "5b313fe719a4f00004eea586",
  "idExercicio": "5b2ed0853ebaa50004e95fdc",
  "dataInicial": {
    "$date": "2018-06-26T19:05:43.998Z"
  }
},{
  "_id": {
    "$oid": "5b328ffe9761d60004387ddf"
  },
  "idUsuario": "5b31a559e51c43000455c3ed",
  "idExercicio": "5b2d911b8e7f240004977e82",
  "dataInicial": {
    "$date": "2018-06-26T19:11:58.403Z"
  }
},{
  "_id": {
    "$oid": "5b32903a9761d60004387de0"
  },
  "idUsuario": "5b313fe719a4f00004eea586",
  "idExercicio": "5b2d913b8e7f240004977e83",
  "dataInicial": {
    "$date": "2018-06-26T19:12:58.100Z"
  }
},{
  "_id": {
    "$oid": "5b3290809761d60004387de2"
  },
  "idUsuario": "5b3290459761d60004387de1",
  "idExercicio": "5b2d8fcf8e7f240004977e7c",
  "dataInicial": {
    "$date": "2018-06-26T19:14:08.067Z"
  }
},{
  "_id": {
    "$oid": "5b3290f89761d60004387de3"
  },
  "idUsuario": "5b31a559e51c43000455c3ed",
  "idExercicio": "5b2ecb873ebaa50004e95fda",
  "dataInicial": {
    "$date": "2018-06-26T19:16:07.639Z"
  }
},{
  "_id": {
    "$oid": "5b3291129761d60004387de4"
  },
  "idUsuario": "5b31a559e51c43000455c3ed",
  "idExercicio": "5b2d913b8e7f240004977e83",
  "dataInicial": {
    "$date": "2018-06-26T19:16:34.128Z"
  }
},{
  "_id": {
    "$oid": "5b3291489761d60004387de5"
  },
  "idUsuario": "5b313fe719a4f00004eea586",
  "idExercicio": "5b2d913b8e7f240004977e83",
  "dataInicial": {
    "$date": "2018-06-26T19:17:28.663Z"
  }
},{
  "_id": {
    "$oid": "5b3292a89761d60004387de6"
  },
  "idUsuario": "5b31ae36e51c43000455c3fd",
  "idExercicio": "5b2d90c08e7f240004977e80",
  "dataInicial": {
    "$date": "2018-06-26T19:26:16.385Z"
  }
},{
  "_id": {
    "$oid": "5b3292af9761d60004387de7"
  },
  "idUsuario": "5b31ae36e51c43000455c3fd",
  "idExercicio": "5b2ecb873ebaa50004e95fda",
  "dataInicial": {
    "$date": "2018-06-26T19:26:24.136Z"
  }
},{
  "_id": {
    "$oid": "5b3293a79761d60004387de8"
  },
  "idUsuario": "5b31a559e51c43000455c3ed",
  "idExercicio": "5b2d908f8e7f240004977e7f",
  "dataInicial": {
    "$date": "2018-06-26T19:27:35.345Z"
  }
},{
  "_id": {
    "$oid": "5b3295839761d60004387de9"
  },
  "idUsuario": "5b31a559e51c43000455c3ed",
  "idExercicio": "5b2d91658e7f240004977e84",
  "dataInicial": {
    "$date": "2018-06-26T19:35:29.961Z"
  }
},{
  "_id": {
    "$oid": "5b3295bb9761d60004387dea"
  },
  "idUsuario": "5b31a559e51c43000455c3ed",
  "idExercicio": "5b2d90248e7f240004977e7d",
  "dataInicial": {
    "$date": "2018-06-26T19:36:27.458Z"
  }
},{
  "_id": {
    "$oid": "5b3296a49761d60004387deb"
  },
  "idUsuario": "5b31a559e51c43000455c3ed",
  "idExercicio": "5b2ebb763ebaa50004e95fd1",
  "dataInicial": {
    "$date": "2018-06-26T19:40:20.033Z"
  }
},{
  "_id": {
    "$oid": "5b32972f9761d60004387dec"
  },
  "idUsuario": "5b313fe719a4f00004eea586",
  "idExercicio": "5b2d91658e7f240004977e84",
  "dataInicial": {
    "$date": "2018-06-26T19:42:39.779Z"
  }
},{
  "_id": {
    "$oid": "5b3297349761d60004387ded"
  },
  "idUsuario": "5b31a559e51c43000455c3ed",
  "idExercicio": "5b2ebb763ebaa50004e95fd1",
  "dataInicial": {
    "$date": "2018-06-26T19:42:43.526Z"
  }
},{
  "_id": {
    "$oid": "5b3298929761d60004387dee"
  },
  "idUsuario": "5b31a559e51c43000455c3ed",
  "idExercicio": "5b2d913b8e7f240004977e83",
  "dataInicial": {
    "$date": "2018-06-26T19:48:33.706Z"
  }
},{
  "_id": {
    "$oid": "5b329a0e9761d60004387def"
  },
  "idUsuario": "5b31a559e51c43000455c3ed",
  "idExercicio": "5b2d913b8e7f240004977e83",
  "dataInicial": {
    "$date": "2018-06-26T19:54:53.728Z"
  }
},{
  "_id": {
    "$oid": "5b329a689761d60004387df0"
  },
  "idUsuario": "5b31a559e51c43000455c3ed",
  "idExercicio": "5b2eb9cd3ebaa50004e95fcf",
  "dataInicial": {
    "$date": "2018-06-26T19:56:23.634Z"
  }
},{
  "_id": {
    "$oid": "5b329bad9761d60004387df1"
  },
  "idUsuario": "5b313fe719a4f00004eea586",
  "idExercicio": "5b2d911b8e7f240004977e82",
  "dataInicial": {
    "$date": "2018-06-26T20:01:49.493Z"
  }
},{
  "_id": {
    "$oid": "5b329bdf9761d60004387df2"
  },
  "idUsuario": "5b31a559e51c43000455c3ed",
  "idExercicio": "5b2d90c08e7f240004977e80",
  "dataInicial": {
    "$date": "2018-06-26T20:02:39.313Z"
  }
},{
  "_id": {
    "$oid": "5b329be59761d60004387df3"
  },
  "idUsuario": "5b31a559e51c43000455c3ed",
  "idExercicio": "5b2ed0853ebaa50004e95fdc",
  "dataInicial": {
    "$date": "2018-06-26T20:02:45.281Z"
  }
},{
  "_id": {
    "$oid": "5b329bf49761d60004387df4"
  },
  "idUsuario": "5b313fe719a4f00004eea586",
  "idExercicio": "5b2ebb763ebaa50004e95fd1",
  "dataInicial": {
    "$date": "2018-06-26T20:03:00.809Z"
  }
},{
  "_id": {
    "$oid": "5b329d229761d60004387df5"
  },
  "idUsuario": "5b313fe719a4f00004eea586",
  "idExercicio": "5b2eb9cd3ebaa50004e95fcf",
  "dataInicial": {
    "$date": "2018-06-26T20:08:03.082Z"
  }
},{
  "_id": {
    "$oid": "5b329e3c9761d60004387df6"
  },
  "idUsuario": "5b313fe719a4f00004eea586",
  "idExercicio": "5b2ebb763ebaa50004e95fd1",
  "dataInicial": {
    "$date": "2018-06-26T20:12:44.457Z"
  }
},{
  "_id": {
    "$oid": "5b32b19f30824f0004279a97"
  },
  "idUsuario": "5b31ac69e51c43000455c3f8",
  "idExercicio": "5b2ecb873ebaa50004e95fda",
  "dataInicial": {
    "$date": "2018-06-26T21:35:26.649Z"
  }
},{
  "_id": {
    "$oid": "5b32b20830824f0004279a98"
  },
  "idUsuario": "5b31ac69e51c43000455c3f8",
  "idExercicio": "5b2d91658e7f240004977e84",
  "dataInicial": {
    "$date": "2018-06-26T21:37:11.948Z"
  }
},{
  "_id": {
    "$oid": "5b32b39230824f0004279a99"
  },
  "idUsuario": "5b31ac69e51c43000455c3f8",
  "idExercicio": "5b2ec5f23ebaa50004e95fd7",
  "dataInicial": {
    "$date": "2018-06-26T21:43:46.597Z"
  }
},{
  "_id": {
    "$oid": "5b32b46c30824f0004279a9a"
  },
  "idUsuario": "5b31ac69e51c43000455c3f8",
  "idExercicio": "5b2ecb873ebaa50004e95fda",
  "dataInicial": {
    "$date": "2018-06-26T21:47:24.591Z"
  }
},{
  "_id": {
    "$oid": "5b32b5d030824f0004279a9b"
  },
  "idUsuario": "5b313fe719a4f00004eea586",
  "idExercicio": "5b2d91658e7f240004977e84",
  "dataInicial": {
    "$date": "2018-06-26T21:53:21.213Z"
  }
},{
  "_id": {
    "$oid": "5b32b5ef30824f0004279a9c"
  },
  "idUsuario": "5b313fe719a4f00004eea586",
  "idExercicio": "5b2ed2443ebaa50004e95fde",
  "dataInicial": {
    "$date": "2018-06-26T21:53:51.855Z"
  }
},{
  "_id": {
    "$oid": "5b32b61130824f0004279a9d"
  },
  "idUsuario": "5b313fe719a4f00004eea586",
  "idExercicio": "5b2eb6b33ebaa50004e95fcb",
  "dataInicial": {
    "$date": "2018-06-26T21:54:26.227Z"
  }
},{
  "_id": {
    "$oid": "5b32b61c30824f0004279a9e"
  },
  "idUsuario": "5b313fe719a4f00004eea586",
  "idExercicio": "5b2ed2443ebaa50004e95fde",
  "dataInicial": {
    "$date": "2018-06-26T21:54:36.540Z"
  }
},{
  "_id": {
    "$oid": "5b32b71230824f0004279a9f"
  },
  "idUsuario": "5b313fe719a4f00004eea586",
  "idExercicio": "5b2ec5f23ebaa50004e95fd7",
  "dataInicial": {
    "$date": "2018-06-26T21:58:41.970Z"
  }
},{
  "_id": {
    "$oid": "5b32ba5830824f0004279aa0"
  },
  "idUsuario": "5b30e33b8a047000044acc53",
  "idExercicio": "5b2d90c08e7f240004977e80",
  "dataInicial": {
    "$date": "2018-06-26T22:12:40.098Z"
  }
},{
  "_id": {
    "$oid": "5b32bb8330824f0004279aa1"
  },
  "idUsuario": "5b313fe719a4f00004eea586",
  "idExercicio": "5b2ec5f23ebaa50004e95fd7",
  "dataInicial": {
    "$date": "2018-06-26T22:17:38.795Z"
  }
},{
  "_id": {
    "$oid": "5b32bc6430824f0004279aa2"
  },
  "idUsuario": "5b31423319a4f00004eea589",
  "idExercicio": "5b2d90c08e7f240004977e80",
  "dataInicial": {
    "$date": "2018-06-26T22:21:23.877Z"
  }
},{
  "_id": {
    "$oid": "5b32bce030824f0004279aa3"
  },
  "idUsuario": "5b30e33b8a047000044acc53",
  "idExercicio": "5b2ecb873ebaa50004e95fda",
  "dataInicial": {
    "$date": "2018-06-26T22:23:28.800Z"
  }
},{
  "_id": {
    "$oid": "5b32bd5f30824f0004279aa4"
  },
  "idUsuario": "5b2fe4a029f6c40004838c8e",
  "idExercicio": "5b2d905b8e7f240004977e7e",
  "dataInicial": {
    "$date": "2018-06-26T22:25:35.418Z"
  }
},{
  "_id": {
    "$oid": "5b32bde230824f0004279aa5"
  },
  "idUsuario": "5b313fe719a4f00004eea586",
  "idExercicio": "5b2ec5f23ebaa50004e95fd7",
  "dataInicial": {
    "$date": "2018-06-26T22:27:46.164Z"
  }
},{
  "_id": {
    "$oid": "5b32bde430824f0004279aa6"
  },
  "idUsuario": "5b31423319a4f00004eea589",
  "idExercicio": "5b2ed0853ebaa50004e95fdc",
  "dataInicial": {
    "$date": "2018-06-26T22:27:48.151Z"
  }
},{
  "_id": {
    "$oid": "5b32bdf930824f0004279aa7"
  },
  "idUsuario": "5b313fe719a4f00004eea586",
  "idExercicio": "5b2ec5f23ebaa50004e95fd7",
  "dataInicial": {
    "$date": "2018-06-26T22:28:08.784Z"
  }
},{
  "_id": {
    "$oid": "5b32be8230824f0004279aa8"
  },
  "idUsuario": "5b2fe4a029f6c40004838c8e",
  "idExercicio": "5b2d911b8e7f240004977e82",
  "dataInicial": {
    "$date": "2018-06-26T22:30:25.747Z"
  }
},{
  "_id": {
    "$oid": "5b32be8c30824f0004279aa9"
  },
  "idUsuario": "5b313fe719a4f00004eea586",
  "idExercicio": "5b2ed5643ebaa50004e95fe0",
  "dataInicial": {
    "$date": "2018-06-26T22:30:35.944Z"
  }
},{
  "_id": {
    "$oid": "5b32be9730824f0004279aaa"
  },
  "idUsuario": "5b30e33b8a047000044acc53",
  "idExercicio": "5b2d8fcf8e7f240004977e7c",
  "dataInicial": {
    "$date": "2018-06-26T22:30:47.506Z"
  }
},{
  "_id": {
    "$oid": "5b32be9930824f0004279aab"
  },
  "idUsuario": "5b313fe719a4f00004eea586",
  "idExercicio": "5b2ec5f23ebaa50004e95fd7",
  "dataInicial": {
    "$date": "2018-06-26T22:30:48.773Z"
  }
},{
  "_id": {
    "$oid": "5b32bea730824f0004279aac"
  },
  "idUsuario": "5b31423319a4f00004eea589",
  "idExercicio": "5b2d90e98e7f240004977e81",
  "dataInicial": {
    "$date": "2018-06-26T22:31:03.324Z"
  }
},{
  "_id": {
    "$oid": "5b32beb430824f0004279aad"
  },
  "idUsuario": "5b30e33b8a047000044acc53",
  "idExercicio": "5b2ed0853ebaa50004e95fdc",
  "dataInicial": {
    "$date": "2018-06-26T22:31:16.714Z"
  }
},{
  "_id": {
    "$oid": "5b32bf2230824f0004279aae"
  },
  "idUsuario": "5b313fe719a4f00004eea586",
  "idExercicio": "5b2ec5f23ebaa50004e95fd7",
  "dataInicial": {
    "$date": "2018-06-26T22:33:06.189Z"
  }
},{
  "_id": {
    "$oid": "5b32bf4e30824f0004279aaf"
  },
  "idUsuario": "5b313fe719a4f00004eea586",
  "idExercicio": "5b2d913b8e7f240004977e83",
  "dataInicial": {
    "$date": "2018-06-26T22:33:50.390Z"
  }
},{
  "_id": {
    "$oid": "5b32bf6430824f0004279ab0"
  },
  "idUsuario": "5b31423319a4f00004eea589",
  "idExercicio": "5b2d8fcf8e7f240004977e7c",
  "dataInicial": {
    "$date": "2018-06-26T22:34:12.320Z"
  }
},{
  "_id": {
    "$oid": "5b32c1cd30824f0004279ab1"
  },
  "idUsuario": "5b313fe719a4f00004eea586",
  "idExercicio": "5b2ebb763ebaa50004e95fd1",
  "dataInicial": {
    "$date": "2018-06-26T22:44:28.890Z"
  }
},{
  "_id": {
    "$oid": "5b32c26630824f0004279ab2"
  },
  "idUsuario": "5b30e33b8a047000044acc53",
  "idExercicio": "5b2d913b8e7f240004977e83",
  "dataInicial": {
    "$date": "2018-06-26T22:47:02.554Z"
  }
},{
  "_id": {
    "$oid": "5b32c32630824f0004279ab3"
  },
  "idUsuario": "5b313fe719a4f00004eea586",
  "idExercicio": "5b2ebb763ebaa50004e95fd1",
  "dataInicial": {
    "$date": "2018-06-26T22:50:14.166Z"
  }
},{
  "_id": {
    "$oid": "5b32c3c030824f0004279ab4"
  },
  "idUsuario": "5b2fe4a029f6c40004838c8e",
  "idExercicio": "5b2ebb763ebaa50004e95fd1",
  "dataInicial": {
    "$date": "2018-06-26T22:52:48.256Z"
  }
},{
  "_id": {
    "$oid": "5b32c3d230824f0004279ab5"
  },
  "idUsuario": "5b30e33b8a047000044acc53",
  "idExercicio": "5b2ed0853ebaa50004e95fdc",
  "dataInicial": {
    "$date": "2018-06-26T22:53:06.614Z"
  }
},{
  "_id": {
    "$oid": "5b32c3d330824f0004279ab6"
  },
  "idUsuario": "5b2fe4a029f6c40004838c8e",
  "idExercicio": "5b2ebb763ebaa50004e95fd1",
  "dataInicial": {
    "$date": "2018-06-26T22:53:08.115Z"
  }
},{
  "_id": {
    "$oid": "5b32c40330824f0004279ab7"
  },
  "idUsuario": "5b30e33b8a047000044acc53",
  "idExercicio": "5b2d90248e7f240004977e7d",
  "dataInicial": {
    "$date": "2018-06-26T22:53:54.943Z"
  }
},{
  "_id": {
    "$oid": "5b32c56430824f0004279ab9"
  },
  "idUsuario": "5b32c52830824f0004279ab8",
  "idExercicio": "5b2d908f8e7f240004977e7f",
  "dataInicial": {
    "$date": "2018-06-26T22:59:48.451Z"
  }
},{
  "_id": {
    "$oid": "5b32c62b30824f0004279aba"
  },
  "idUsuario": "5b30e33b8a047000044acc53",
  "idExercicio": "5b2d908f8e7f240004977e7f",
  "dataInicial": {
    "$date": "2018-06-26T23:03:07.551Z"
  }
},{
  "_id": {
    "$oid": "5b32c7b930824f0004279abb"
  },
  "idUsuario": "5b32c52830824f0004279ab8",
  "idExercicio": "5b2ed0853ebaa50004e95fdc",
  "dataInicial": {
    "$date": "2018-06-26T23:09:45.695Z"
  }
},{
  "_id": {
    "$oid": "5b32c81330824f0004279abc"
  },
  "idUsuario": "5b30e33b8a047000044acc53",
  "idExercicio": "5b2eb6b33ebaa50004e95fcb",
  "dataInicial": {
    "$date": "2018-06-26T23:11:15.388Z"
  }
},{
  "_id": {
    "$oid": "5b32c84030824f0004279abd"
  },
  "idUsuario": "5b30e33b8a047000044acc53",
  "idExercicio": "5b2eb9cd3ebaa50004e95fcf",
  "dataInicial": {
    "$date": "2018-06-26T23:12:00.775Z"
  }
},{
  "_id": {
    "$oid": "5b32c8a630824f0004279abe"
  },
  "idUsuario": "5b30e33b8a047000044acc53",
  "idExercicio": "5b2d905b8e7f240004977e7e",
  "dataInicial": {
    "$date": "2018-06-26T23:13:42.256Z"
  }
},{
  "_id": {
    "$oid": "5b32c8d030824f0004279abf"
  },
  "idUsuario": "5b30e33b8a047000044acc53",
  "idExercicio": "5b2ebb763ebaa50004e95fd1",
  "dataInicial": {
    "$date": "2018-06-26T23:14:24.079Z"
  }
},{
  "_id": {
    "$oid": "5b32c91130824f0004279ac0"
  },
  "idUsuario": "5b32c52830824f0004279ab8",
  "idExercicio": "5b2d90248e7f240004977e7d",
  "dataInicial": {
    "$date": "2018-06-26T23:15:28.952Z"
  }
},{
  "_id": {
    "$oid": "5b32c94230824f0004279ac1"
  },
  "idUsuario": "5b30e33b8a047000044acc53",
  "idExercicio": "5b2d911b8e7f240004977e82",
  "dataInicial": {
    "$date": "2018-06-26T23:16:18.130Z"
  }
},{
  "_id": {
    "$oid": "5b32c9b830824f0004279ac2"
  },
  "idUsuario": "5b32c52830824f0004279ab8",
  "idExercicio": "5b2d8fcf8e7f240004977e7c",
  "dataInicial": {
    "$date": "2018-06-26T23:18:16.671Z"
  }
},{
  "_id": {
    "$oid": "5b32c9d730824f0004279ac3"
  },
  "idUsuario": "5b32c52830824f0004279ab8",
  "idExercicio": "5b2eb6b33ebaa50004e95fcb",
  "dataInicial": {
    "$date": "2018-06-26T23:18:47.015Z"
  }
},{
  "_id": {
    "$oid": "5b32ca3130824f0004279ac4"
  },
  "idUsuario": "5b32c52830824f0004279ab8",
  "idExercicio": "5b2d905b8e7f240004977e7e",
  "dataInicial": {
    "$date": "2018-06-26T23:20:17.772Z"
  }
},{
  "_id": {
    "$oid": "5b32ca6230824f0004279ac5"
  },
  "idUsuario": "5b32c52830824f0004279ab8",
  "idExercicio": "5b2d90e98e7f240004977e81",
  "dataInicial": {
    "$date": "2018-06-26T23:21:06.829Z"
  }
},{
  "_id": {
    "$oid": "5b32cad530824f0004279ac7"
  },
  "idUsuario": "5b32c52830824f0004279ab8",
  "idExercicio": "5b2ec5f23ebaa50004e95fd7",
  "dataInicial": {
    "$date": "2018-06-26T23:23:02.149Z"
  }
},{
  "_id": {
    "$oid": "5b32cae330824f0004279ac8"
  },
  "idUsuario": "5b32cab930824f0004279ac6",
  "idExercicio": "5b2d908f8e7f240004977e7f",
  "dataInicial": {
    "$date": "2018-06-26T23:23:15.579Z"
  }
},{
  "_id": {
    "$oid": "5b32cbed30824f0004279ac9"
  },
  "idUsuario": "5b30e33b8a047000044acc53",
  "idExercicio": "5b2d90e98e7f240004977e81",
  "dataInicial": {
    "$date": "2018-06-26T23:27:40.986Z"
  }
},{
  "_id": {
    "$oid": "5b32cc2330824f0004279aca"
  },
  "idUsuario": "5b32c52830824f0004279ab8",
  "idExercicio": "5b2ebb763ebaa50004e95fd1",
  "dataInicial": {
    "$date": "2018-06-26T23:28:35.712Z"
  }
},{
  "_id": {
    "$oid": "5b32cc5630824f0004279acb"
  },
  "idUsuario": "5b30e33b8a047000044acc53",
  "idExercicio": "5b2ed2443ebaa50004e95fde",
  "dataInicial": {
    "$date": "2018-06-26T23:29:26.447Z"
  }
},{
  "_id": {
    "$oid": "5b32cd4730824f0004279acc"
  },
  "idUsuario": "5b32cab930824f0004279ac6",
  "idExercicio": "5b2d908f8e7f240004977e7f",
  "dataInicial": {
    "$date": "2018-06-26T23:33:27.237Z"
  }
},{
  "_id": {
    "$oid": "5b32cd5330824f0004279acd"
  },
  "idUsuario": "5b30e33b8a047000044acc53",
  "idExercicio": "5b2ec5f23ebaa50004e95fd7",
  "dataInicial": {
    "$date": "2018-06-26T23:33:39.280Z"
  }
},{
  "_id": {
    "$oid": "5b32cd6a30824f0004279ace"
  },
  "idUsuario": "5b32cab930824f0004279ac6",
  "idExercicio": "5b2d90c08e7f240004977e80",
  "dataInicial": {
    "$date": "2018-06-26T23:34:01.991Z"
  }
},{
  "_id": {
    "$oid": "5b32ce7030824f0004279acf"
  },
  "idUsuario": "5b313cef19a4f00004eea584",
  "idExercicio": "5b2eb6b33ebaa50004e95fcb",
  "dataInicial": {
    "$date": "2018-06-26T23:38:23.174Z"
  }
},{
  "_id": {
    "$oid": "5b32cef730824f0004279ad0"
  },
  "idUsuario": "5b30e33b8a047000044acc53",
  "idExercicio": "5b2ec5f23ebaa50004e95fd7",
  "dataInicial": {
    "$date": "2018-06-26T23:40:38.940Z"
  }
},{
  "_id": {
    "$oid": "5b32cf6330824f0004279ad1"
  },
  "idUsuario": "5b30e33b8a047000044acc53",
  "idExercicio": "5b2ec5f23ebaa50004e95fd7",
  "dataInicial": {
    "$date": "2018-06-26T23:42:27.026Z"
  }
},{
  "_id": {
    "$oid": "5b32cf6c30824f0004279ad2"
  },
  "idUsuario": "5b32cab930824f0004279ac6",
  "idExercicio": "5b2ed5643ebaa50004e95fe0",
  "dataInicial": {
    "$date": "2018-06-26T23:42:36.090Z"
  }
},{
  "_id": {
    "$oid": "5b32d22230824f0004279ad3"
  },
  "idUsuario": "5b313cef19a4f00004eea584",
  "idExercicio": "5b2d8fcf8e7f240004977e7c",
  "dataInicial": {
    "$date": "2018-06-26T23:54:09.801Z"
  }
},{
  "_id": {
    "$oid": "5b32d85630824f0004279ad4"
  },
  "idUsuario": "5b31ae36e51c43000455c3fd",
  "idExercicio": "5b2ecb873ebaa50004e95fda",
  "dataInicial": {
    "$date": "2018-06-27T00:20:41.557Z"
  }
},{
  "_id": {
    "$oid": "5b32d95f30824f0004279ad5"
  },
  "idUsuario": "5b2ee1323ebaa50004e95fe7",
  "idExercicio": "5b2d90c08e7f240004977e80",
  "dataInicial": {
    "$date": "2018-06-27T00:25:00.205Z"
  }
},{
  "_id": {
    "$oid": "5b32e7f330824f0004279ad6"
  },
  "idUsuario": "5b31ae36e51c43000455c3fd",
  "idExercicio": "5b2d8fcf8e7f240004977e7c",
  "dataInicial": {
    "$date": "2018-06-27T01:27:19.486Z"
  }
},{
  "_id": {
    "$oid": "5b32e81630824f0004279ad7"
  },
  "idUsuario": "5b31ae36e51c43000455c3fd",
  "idExercicio": "5b2d905b8e7f240004977e7e",
  "dataInicial": {
    "$date": "2018-06-27T01:27:53.663Z"
  }
},{
  "_id": {
    "$oid": "5b32e85c30824f0004279ad8"
  },
  "idUsuario": "5b31ae36e51c43000455c3fd",
  "idExercicio": "5b2ec5f23ebaa50004e95fd7",
  "dataInicial": {
    "$date": "2018-06-27T01:29:03.684Z"
  }
},{
  "_id": {
    "$oid": "5b32e87630824f0004279ad9"
  },
  "idUsuario": "5b31ae36e51c43000455c3fd",
  "idExercicio": "5b2ecb873ebaa50004e95fda",
  "dataInicial": {
    "$date": "2018-06-27T01:29:30.114Z"
  }
},{
  "_id": {
    "$oid": "5b32eb1c30824f0004279adb"
  },
  "idUsuario": "5b32eae430824f0004279ada",
  "idExercicio": "5b2d90c08e7f240004977e80",
  "dataInicial": {
    "$date": "2018-06-27T01:40:44.777Z"
  }
},{
  "_id": {
    "$oid": "5b32ecb530824f0004279adc"
  },
  "idUsuario": "5b31ae36e51c43000455c3fd",
  "idExercicio": "5b2eb9cd3ebaa50004e95fcf",
  "dataInicial": {
    "$date": "2018-06-27T01:47:37.030Z"
  }
},{
  "_id": {
    "$oid": "5b32f0a130824f0004279add"
  },
  "idUsuario": "5b31ae36e51c43000455c3fd",
  "idExercicio": "5b2eb6b33ebaa50004e95fcb",
  "dataInicial": {
    "$date": "2018-06-27T02:04:21.414Z"
  }
},{
  "_id": {
    "$oid": "5b32f16b30824f0004279ade"
  },
  "idUsuario": "5b31ae36e51c43000455c3fd",
  "idExercicio": "5b2ed2443ebaa50004e95fde",
  "dataInicial": {
    "$date": "2018-06-27T02:07:42.935Z"
  }
},{
  "_id": {
    "$oid": "5b32f28e30824f0004279adf"
  },
  "idUsuario": "5b31ae36e51c43000455c3fd",
  "idExercicio": "5b2d90248e7f240004977e7d",
  "dataInicial": {
    "$date": "2018-06-27T02:12:34.182Z"
  }
},{
  "_id": {
    "$oid": "5b32f4ad30824f0004279ae0"
  },
  "idUsuario": "5b31ae36e51c43000455c3fd",
  "idExercicio": "5b2d90e98e7f240004977e81",
  "dataInicial": {
    "$date": "2018-06-27T02:21:36.317Z"
  }
},{
  "_id": {
    "$oid": "5b32f5c630824f0004279ae1"
  },
  "idUsuario": "5b328b179761d60004387dd6",
  "idExercicio": "5b2d908f8e7f240004977e7f",
  "dataInicial": {
    "$date": "2018-06-27T02:26:14.081Z"
  }
},{
  "_id": {
    "$oid": "5b32f60a30824f0004279ae2"
  },
  "idUsuario": "5b31ae36e51c43000455c3fd",
  "idExercicio": "5b2d90e98e7f240004977e81",
  "dataInicial": {
    "$date": "2018-06-27T02:27:26.005Z"
  }
},{
  "_id": {
    "$oid": "5b32f6c430824f0004279ae3"
  },
  "idUsuario": "5b313fe719a4f00004eea586",
  "idExercicio": "5b2ec5f23ebaa50004e95fd7",
  "dataInicial": {
    "$date": "2018-06-27T02:30:28.990Z"
  }
},{
  "_id": {
    "$oid": "5b32f6ea30824f0004279ae4"
  },
  "idUsuario": "5b31ae36e51c43000455c3fd",
  "idExercicio": "5b2ed5643ebaa50004e95fe0",
  "dataInicial": {
    "$date": "2018-06-27T02:31:10.246Z"
  }
},{
  "_id": {
    "$oid": "5b32f71930824f0004279ae5"
  },
  "idUsuario": "5b31ae36e51c43000455c3fd",
  "idExercicio": "5b2d90c08e7f240004977e80",
  "dataInicial": {
    "$date": "2018-06-27T02:31:56.722Z"
  }
},{
  "_id": {
    "$oid": "5b32f92e30824f0004279ae6"
  },
  "idUsuario": "5b31ae36e51c43000455c3fd",
  "idExercicio": "5b2ec5f23ebaa50004e95fd7",
  "dataInicial": {
    "$date": "2018-06-27T02:40:50.236Z"
  }
},{
  "_id": {
    "$oid": "5b32f94e30824f0004279ae7"
  },
  "idUsuario": "5b31ae36e51c43000455c3fd",
  "idExercicio": "5b2d908f8e7f240004977e7f",
  "dataInicial": {
    "$date": "2018-06-27T02:41:21.661Z"
  }
},{
  "_id": {
    "$oid": "5b32f9ee30824f0004279ae8"
  },
  "idUsuario": "5b31ae36e51c43000455c3fd",
  "idExercicio": "5b2ebb763ebaa50004e95fd1",
  "dataInicial": {
    "$date": "2018-06-27T02:44:02.397Z"
  }
},{
  "_id": {
    "$oid": "5b32fa0930824f0004279ae9"
  },
  "idUsuario": "5b31ae36e51c43000455c3fd",
  "idExercicio": "5b2d91658e7f240004977e84",
  "dataInicial": {
    "$date": "2018-06-27T02:44:29.430Z"
  }
},{
  "_id": {
    "$oid": "5b32fc0d30824f0004279aea"
  },
  "idUsuario": "5b31ae36e51c43000455c3fd",
  "idExercicio": "5b2d91658e7f240004977e84",
  "dataInicial": {
    "$date": "2018-06-27T02:53:05.281Z"
  }
},{
  "_id": {
    "$oid": "5b32fccb30824f0004279aeb"
  },
  "idUsuario": "5b2c08f92dfdde000441407a",
  "idExercicio": "5b2d90c08e7f240004977e80",
  "dataInicial": {
    "$date": "2018-06-27T02:56:11.608Z"
  }
},{
  "_id": {
    "$oid": "5b32fd2330824f0004279aec"
  },
  "idUsuario": "5b31ae36e51c43000455c3fd",
  "idExercicio": "5b2d913b8e7f240004977e83",
  "dataInicial": {
    "$date": "2018-06-27T02:57:42.710Z"
  }
},{
  "_id": {
    "$oid": "5b32fd4430824f0004279aed"
  },
  "idUsuario": "5b31ae36e51c43000455c3fd",
  "idExercicio": "5b2d911b8e7f240004977e82",
  "dataInicial": {
    "$date": "2018-06-27T02:58:15.870Z"
  }
},{
  "_id": {
    "$oid": "5b32fd7930824f0004279aee"
  },
  "idUsuario": "5b2c08f92dfdde000441407a",
  "idExercicio": "5b2ed5643ebaa50004e95fe0",
  "dataInicial": {
    "$date": "2018-06-27T02:59:05.418Z"
  }
},{
  "_id": {
    "$oid": "5b32fe3a30824f0004279aef"
  },
  "idUsuario": "5b31ae36e51c43000455c3fd",
  "idExercicio": "5b2ed0853ebaa50004e95fdc",
  "dataInicial": {
    "$date": "2018-06-27T03:02:21.980Z"
  }
},{
  "_id": {
    "$oid": "5b32fe6030824f0004279af0"
  },
  "idUsuario": "5b31ae36e51c43000455c3fd",
  "idExercicio": "5b2d90e98e7f240004977e81",
  "dataInicial": {
    "$date": "2018-06-27T03:03:00.271Z"
  }
},{
  "_id": {
    "$oid": "5b33019a30824f0004279af1"
  },
  "idUsuario": "5b313fe719a4f00004eea586",
  "idExercicio": "5b2ec5f23ebaa50004e95fd7",
  "dataInicial": {
    "$date": "2018-06-27T03:16:42.081Z"
  }
},{
  "_id": {
    "$oid": "5b33021630824f0004279af2"
  },
  "idUsuario": "5b2c08f92dfdde000441407a",
  "idExercicio": "5b2ecb873ebaa50004e95fda",
  "dataInicial": {
    "$date": "2018-06-27T03:18:45.718Z"
  }
},{
  "_id": {
    "$oid": "5b33035d30824f0004279af3"
  },
  "idUsuario": "5b2c08f92dfdde000441407a",
  "idExercicio": "5b2d8fcf8e7f240004977e7c",
  "dataInicial": {
    "$date": "2018-06-27T03:24:12.915Z"
  }
},{
  "_id": {
    "$oid": "5b33038430824f0004279af4"
  },
  "idUsuario": "5b2c08f92dfdde000441407a",
  "idExercicio": "5b2d8fcf8e7f240004977e7c",
  "dataInicial": {
    "$date": "2018-06-27T03:24:52.532Z"
  }
},{
  "_id": {
    "$oid": "5b33039830824f0004279af5"
  },
  "idUsuario": "5b2c08f92dfdde000441407a",
  "idExercicio": "5b2d908f8e7f240004977e7f",
  "dataInicial": {
    "$date": "2018-06-27T03:25:12.438Z"
  }
},{
  "_id": {
    "$oid": "5b33047130824f0004279af6"
  },
  "idUsuario": "5b2c08f92dfdde000441407a",
  "idExercicio": "5b2ebb763ebaa50004e95fd1",
  "dataInicial": {
    "$date": "2018-06-27T03:28:49.506Z"
  }
},{
  "_id": {
    "$oid": "5b33048c30824f0004279af7"
  },
  "idUsuario": "5b31ac69e51c43000455c3f8",
  "idExercicio": "5b2ecb873ebaa50004e95fda",
  "dataInicial": {
    "$date": "2018-06-27T03:29:16.550Z"
  }
},{
  "_id": {
    "$oid": "5b330baf30824f0004279af8"
  },
  "idUsuario": "5b313fe719a4f00004eea586",
  "idExercicio": "5b2ec5f23ebaa50004e95fd7",
  "dataInicial": {
    "$date": "2018-06-27T03:59:43.678Z"
  }
},{
  "_id": {
    "$oid": "5b3316b330824f0004279af9"
  },
  "idUsuario": "5b2c02ab0138170004fe9f07",
  "idExercicio": "5b2eb9cd3ebaa50004e95fcf",
  "dataInicial": {
    "$date": "2018-06-27T04:46:42.239Z"
  }
},{
  "_id": {
    "$oid": "5b355042e68398000477f02c"
  },
  "idUsuario": "5b2c02280138170004fe9f04",
  "idExercicio": "5b2d90c08e7f240004977e80",
  "dataInicial": {
    "$date": "2018-06-28T21:16:50.572Z"
  }
},{
  "_id": {
    "$oid": "5b355062e68398000477f02d"
  },
  "idUsuario": "5b2c02280138170004fe9f04",
  "idExercicio": "5b2d90c08e7f240004977e80",
  "dataInicial": {
    "$date": "2018-06-28T21:17:22.566Z"
  }
},{
  "_id": {
    "$oid": "5b36b1b03252210004997a7d"
  },
  "idUsuario": "5b31ac69e51c43000455c3f8",
  "idExercicio": "5b2d90248e7f240004977e7d",
  "dataInicial": {
    "$date": "2018-06-29T22:24:48.691Z"
  }
},{
  "_id": {
    "$oid": "5b36d1ac8b65a70004101086"
  },
  "idUsuario": "5b31d2c5bf5ed30004a9f8e8",
  "idExercicio": "5b2d90248e7f240004977e7d",
  "dataInicial": {
    "$date": "2018-06-30T00:41:13.150Z"
  }
},{
  "_id": {
    "$oid": "5b36d3738b65a70004101087"
  },
  "idUsuario": "5b31d2c5bf5ed30004a9f8e8",
  "idExercicio": "5b2eb6b33ebaa50004e95fcb",
  "dataInicial": {
    "$date": "2018-06-30T00:48:48.575Z"
  }
},{
  "_id": {
    "$oid": "5b37cece69751900042acbff"
  },
  "idUsuario": "5b2c02ab0138170004fe9f07",
  "idExercicio": "5b2d908f8e7f240004977e7f",
  "dataInicial": {
    "$date": "2018-06-30T18:41:18.621Z"
  }
},{
  "_id": {
    "$oid": "5b37ced769751900042acc01"
  },
  "idUsuario": "5b2c02ab0138170004fe9f07",
  "idExercicio": "5b2ecb873ebaa50004e95fda",
  "dataInicial": {
    "$date": "2018-06-30T18:41:27.412Z"
  }
},{
  "_id": {
    "$oid": "5b38c36f2b976800044e675f"
  },
  "idUsuario": "5b31a934e51c43000455c3f5",
  "idExercicio": "5b2d908f8e7f240004977e7f",
  "dataInicial": {
    "$date": "2018-07-01T12:05:03.292Z"
  }
},{
  "_id": {
    "$oid": "5b38c4b62b976800044e6761"
  },
  "idUsuario": "5b31a934e51c43000455c3f5",
  "idExercicio": "5b2d908f8e7f240004977e7f",
  "dataInicial": {
    "$date": "2018-07-01T12:10:30.563Z"
  }
},{
  "_id": {
    "$oid": "5b38c4c32b976800044e6762"
  },
  "idUsuario": "5b31a934e51c43000455c3f5",
  "idExercicio": "5b2d90248e7f240004977e7d",
  "dataInicial": {
    "$date": "2018-07-01T12:10:43.355Z"
  }
},{
  "_id": {
    "$oid": "5b38c5222b976800044e6766"
  },
  "idUsuario": "5b31a934e51c43000455c3f5",
  "idExercicio": "5b2d911b8e7f240004977e82",
  "dataInicial": {
    "$date": "2018-07-01T12:12:18.838Z"
  }
},{
  "_id": {
    "$oid": "5b38c5a42b976800044e6769"
  },
  "idUsuario": "5b31a934e51c43000455c3f5",
  "idExercicio": "5b2eb9cd3ebaa50004e95fcf",
  "dataInicial": {
    "$date": "2018-07-01T12:14:28.372Z"
  }
},{
  "_id": {
    "$oid": "5b38c7ee2b976800044e6771"
  },
  "idUsuario": "5b31a934e51c43000455c3f5",
  "idExercicio": "5b2d913b8e7f240004977e83",
  "dataInicial": {
    "$date": "2018-07-01T12:24:14.537Z"
  }
},{
  "_id": {
    "$oid": "5b38c8e02b976800044e6776"
  },
  "idUsuario": "5b31a934e51c43000455c3f5",
  "idExercicio": "5b2d91658e7f240004977e84",
  "dataInicial": {
    "$date": "2018-07-01T12:28:16.834Z"
  }
},{
  "_id": {
    "$oid": "5b3978d35e6ae0000472b4df"
  },
  "idUsuario": "5b31a934e51c43000455c3f5",
  "idExercicio": "5b2ecb873ebaa50004e95fda",
  "dataInicial": {
    "$date": "2018-07-02T00:58:49.139Z"
  }
},{
  "_id": {
    "$oid": "5b3979545e6ae0000472b4e2"
  },
  "idUsuario": "5b31a934e51c43000455c3f5",
  "idExercicio": "5b2d905b8e7f240004977e7e",
  "dataInicial": {
    "$date": "2018-07-02T01:01:08.088Z"
  }
},{
  "_id": {
    "$oid": "5b3979715e6ae0000472b4e4"
  },
  "idUsuario": "5b31a934e51c43000455c3f5",
  "idExercicio": "5b2d908f8e7f240004977e7f",
  "dataInicial": {
    "$date": "2018-07-02T01:01:37.700Z"
  }
},{
  "_id": {
    "$oid": "5b3979935e6ae0000472b4e5"
  },
  "idUsuario": "5b31a934e51c43000455c3f5",
  "idExercicio": "5b2d8fcf8e7f240004977e7c",
  "dataInicial": {
    "$date": "2018-07-02T01:02:11.309Z"
  }
},{
  "_id": {
    "$oid": "5b3a31d550ade000045f5886"
  },
  "idUsuario": "5b3a31c150ade000045f5885",
  "idExercicio": "5b2ecb873ebaa50004e95fda",
  "dataInicial": {
    "$date": "2018-07-02T14:11:25.590Z"
  }
},{
  "_id": {
    "$oid": "5b3bbd602bbb890004c8da20"
  },
  "idUsuario": "5b31a934e51c43000455c3f5",
  "idExercicio": "5b2ed0853ebaa50004e95fdc",
  "dataInicial": {
    "$date": "2018-07-03T18:16:00.092Z"
  }
},{
  "_id": {
    "$oid": "5b3bbfdb2bbb890004c8da22"
  },
  "idUsuario": "5b31a934e51c43000455c3f5",
  "idExercicio": "5b2ed2443ebaa50004e95fde",
  "dataInicial": {
    "$date": "2018-07-03T18:26:34.912Z"
  }
},{
  "_id": {
    "$oid": "5b3bc1412bbb890004c8da26"
  },
  "idUsuario": "5b31a934e51c43000455c3f5",
  "idExercicio": "5b2eb6b33ebaa50004e95fcb",
  "dataInicial": {
    "$date": "2018-07-03T18:32:32.875Z"
  }
},{
  "_id": {
    "$oid": "5b3bc16b2bbb890004c8da28"
  },
  "idUsuario": "5b31a934e51c43000455c3f5",
  "idExercicio": "5b2d90e98e7f240004977e81",
  "dataInicial": {
    "$date": "2018-07-03T18:33:15.660Z"
  }
},{
  "_id": {
    "$oid": "5b3bc1c52bbb890004c8da2a"
  },
  "idUsuario": "5b31a934e51c43000455c3f5",
  "idExercicio": "5b2ed5643ebaa50004e95fe0",
  "dataInicial": {
    "$date": "2018-07-03T18:34:45.466Z"
  }
},{
  "_id": {
    "$oid": "5b3bd45847bbcf00044f6786"
  },
  "idUsuario": "5b2c08f92dfdde000441407a",
  "idExercicio": "5b2d908f8e7f240004977e7f",
  "dataInicial": {
    "$date": "2018-07-03T19:53:57.838Z"
  }
},{
  "_id": {
    "$oid": "5b3bd81047bbcf00044f678c"
  },
  "idUsuario": "5b3bd7d547bbcf00044f678b",
  "idExercicio": "5b2d905b8e7f240004977e7e",
  "dataInicial": {
    "$date": "2018-07-03T20:09:49.973Z"
  }
},{
  "_id": {
    "$oid": "5b3bd86647bbcf00044f6790"
  },
  "idUsuario": "5b3bd7d547bbcf00044f678b",
  "idExercicio": "5b2d905b8e7f240004977e7e",
  "dataInicial": {
    "$date": "2018-07-03T20:11:16.439Z"
  }
},{
  "_id": {
    "$oid": "5b3bf30bed2bfa000493c619"
  },
  "idUsuario": "5b31ae36e51c43000455c3fd",
  "idExercicio": "5b2ebb763ebaa50004e95fd1",
  "dataInicial": {
    "$date": "2018-07-03T22:04:59.046Z"
  }
},{
  "_id": {
    "$oid": "5b3bf352ed2bfa000493c61b"
  },
  "idUsuario": "5b31ae36e51c43000455c3fd",
  "idExercicio": "5b2ebb763ebaa50004e95fd1",
  "dataInicial": {
    "$date": "2018-07-03T22:06:10.036Z"
  }
},{
  "_id": {
    "$oid": "5b3d010c3a031b000403c96a"
  },
  "idUsuario": "5b2fe4a029f6c40004838c8e",
  "idExercicio": "5b2ed0853ebaa50004e95fdc",
  "dataInicial": {
    "$date": "2018-07-04T17:17:00.036Z"
  }
},{
  "_id": {
    "$oid": "5b3d2b4677fab2000473989f"
  },
  "idUsuario": "5b2c02ab0138170004fe9f07",
  "idExercicio": "5b2ed2443ebaa50004e95fde",
  "dataInicial": {
    "$date": "2018-07-04T20:17:10.566Z"
  }
},{
  "_id": {
    "$oid": "5b3d2b4c77fab200047398a0"
  },
  "idUsuario": "5b2c02ab0138170004fe9f07",
  "idExercicio": "5b2d913b8e7f240004977e83",
  "dataInicial": {
    "$date": "2018-07-04T20:17:16.112Z"
  }
},{
  "_id": {
    "$oid": "5b3d2bf277fab200047398a6"
  },
  "idUsuario": "5b2c02ab0138170004fe9f07",
  "idExercicio": "5b2d913b8e7f240004977e83",
  "dataInicial": {
    "$date": "2018-07-04T20:20:02.486Z"
  }
},{
  "_id": {
    "$oid": "5b3d2c0b77fab200047398a9"
  },
  "idUsuario": "5b2c02ab0138170004fe9f07",
  "idExercicio": "5b2d913b8e7f240004977e83",
  "dataInicial": {
    "$date": "2018-07-04T20:20:27.368Z"
  }
},{
  "_id": {
    "$oid": "5b3d81090406af0004316cfd"
  },
  "idUsuario": "5b3d80f60406af0004316cfc",
  "idExercicio": "5b2eb9cd3ebaa50004e95fcf",
  "dataInicial": {
    "$date": "2018-07-05T02:23:04.979Z"
  }
},{
  "_id": {
    "$oid": "5b3d832e0406af0004316d00"
  },
  "idUsuario": "5b3d80f60406af0004316cfc",
  "idExercicio": "5b2d90248e7f240004977e7d",
  "dataInicial": {
    "$date": "2018-07-05T02:32:13.923Z"
  }
},{
  "_id": {
    "$oid": "5b3d84600406af0004316d06"
  },
  "idUsuario": "5b3d80f60406af0004316cfc",
  "idExercicio": "5b2d911b8e7f240004977e82",
  "dataInicial": {
    "$date": "2018-07-05T02:37:19.417Z"
  }
},{
  "_id": {
    "$oid": "5b3d85910406af0004316d0e"
  },
  "idUsuario": "5b3d80f60406af0004316cfc",
  "idExercicio": "5b2ed0853ebaa50004e95fdc",
  "dataInicial": {
    "$date": "2018-07-05T02:42:24.943Z"
  }
},{
  "_id": {
    "$oid": "5b3d866b0406af0004316d10"
  },
  "idUsuario": "5b3d80f60406af0004316cfc",
  "idExercicio": "5b2d913b8e7f240004977e83",
  "dataInicial": {
    "$date": "2018-07-05T02:46:02.595Z"
  }
},{
  "_id": {
    "$oid": "5b3d872b0406af0004316d13"
  },
  "idUsuario": "5b3d80f60406af0004316cfc",
  "idExercicio": "5b2d905b8e7f240004977e7e",
  "dataInicial": {
    "$date": "2018-07-05T02:49:14.227Z"
  }
},{
  "_id": {
    "$oid": "5b3d87600406af0004316d16"
  },
  "idUsuario": "5b3d80f60406af0004316cfc",
  "idExercicio": "5b2d90e98e7f240004977e81",
  "dataInicial": {
    "$date": "2018-07-05T02:50:07.583Z"
  }
},{
  "_id": {
    "$oid": "5b3d87ba0406af0004316d18"
  },
  "idUsuario": "5b3d80f60406af0004316cfc",
  "idExercicio": "5b2d908f8e7f240004977e7f",
  "dataInicial": {
    "$date": "2018-07-05T02:51:37.975Z"
  }
},{
  "_id": {
    "$oid": "5b3d88650406af0004316d1b"
  },
  "idUsuario": "5b3d80f60406af0004316cfc",
  "idExercicio": "5b2d90c08e7f240004977e80",
  "dataInicial": {
    "$date": "2018-07-05T02:54:28.315Z"
  }
},{
  "_id": {
    "$oid": "5b3d8aef0406af0004316d29"
  },
  "idUsuario": "5b3d8ac40406af0004316d27",
  "idExercicio": "5b2eb9cd3ebaa50004e95fcf",
  "dataInicial": {
    "$date": "2018-07-05T03:05:17.979Z"
  }
},{
  "_id": {
    "$oid": "5b3d8bc70406af0004316d2d"
  },
  "idUsuario": "5b3d8ac40406af0004316d27",
  "idExercicio": "5b2eb9cd3ebaa50004e95fcf",
  "dataInicial": {
    "$date": "2018-07-05T03:08:54.395Z"
  }
},{
  "_id": {
    "$oid": "5b3d8bce0406af0004316d2e"
  },
  "idUsuario": "5b3d8ac40406af0004316d27",
  "idExercicio": "5b2eb9cd3ebaa50004e95fcf",
  "dataInicial": {
    "$date": "2018-07-05T03:09:00.937Z"
  }
},{
  "_id": {
    "$oid": "5b3d8bed0406af0004316d2f"
  },
  "idUsuario": "5b3d8ac40406af0004316d27",
  "idExercicio": "5b2eb9cd3ebaa50004e95fcf",
  "dataInicial": {
    "$date": "2018-07-05T03:09:31.811Z"
  }
},{
  "_id": {
    "$oid": "5b3d8c050406af0004316d30"
  },
  "idUsuario": "5b3d8ac40406af0004316d27",
  "idExercicio": "5b2d90248e7f240004977e7d",
  "dataInicial": {
    "$date": "2018-07-05T03:09:56.167Z"
  }
},{
  "_id": {
    "$oid": "5b3d8c290406af0004316d31"
  },
  "idUsuario": "5b3d80f60406af0004316cfc",
  "idExercicio": "5b2d90c08e7f240004977e80",
  "dataInicial": {
    "$date": "2018-07-05T03:10:32.327Z"
  }
},{
  "_id": {
    "$oid": "5b3d8c710406af0004316d34"
  },
  "idUsuario": "5b3d8ac40406af0004316d27",
  "idExercicio": "5b2d911b8e7f240004977e82",
  "dataInicial": {
    "$date": "2018-07-05T03:11:44.106Z"
  }
},{
  "_id": {
    "$oid": "5b3d8d1b0406af0004316d35"
  },
  "idUsuario": "5b3d8ac40406af0004316d27",
  "idExercicio": "5b2d91658e7f240004977e84",
  "dataInicial": {
    "$date": "2018-07-05T03:14:34.475Z"
  }
},{
  "_id": {
    "$oid": "5b3d8d290406af0004316d36"
  },
  "idUsuario": "5b3d8ac40406af0004316d27",
  "idExercicio": "5b2eb9cd3ebaa50004e95fcf",
  "dataInicial": {
    "$date": "2018-07-05T03:14:48.228Z"
  }
},{
  "_id": {
    "$oid": "5b3d8d460406af0004316d37"
  },
  "idUsuario": "5b3d8ac40406af0004316d27",
  "idExercicio": "5b2d911b8e7f240004977e82",
  "dataInicial": {
    "$date": "2018-07-05T03:15:17.228Z"
  }
},{
  "_id": {
    "$oid": "5b3d90040406af0004316d3a"
  },
  "idUsuario": "5b2c02ab0138170004fe9f07",
  "idExercicio": "5b2d908f8e7f240004977e7f",
  "dataInicial": {
    "$date": "2018-07-05T03:26:56.225Z"
  }
},{
  "_id": {
    "$oid": "5b3d902b0406af0004316d3b"
  },
  "idUsuario": "5b2c02ab0138170004fe9f07",
  "idExercicio": "5b2eb6b33ebaa50004e95fcb",
  "dataInicial": {
    "$date": "2018-07-05T03:27:36.264Z"
  }
},{
  "_id": {
    "$oid": "5b3d90fe0406af0004316d3d"
  },
  "idUsuario": "5b3d8ac40406af0004316d27",
  "idExercicio": "5b2eb9cd3ebaa50004e95fcf",
  "dataInicial": {
    "$date": "2018-07-05T03:31:10.762Z"
  }
},{
  "_id": {
    "$oid": "5b3d91c40406af0004316d3e"
  },
  "idUsuario": "5b3d8ac40406af0004316d27",
  "idExercicio": "5b2d911b8e7f240004977e82",
  "dataInicial": {
    "$date": "2018-07-05T03:34:27.835Z"
  }
},{
  "_id": {
    "$oid": "5b3d91ef0406af0004316d3f"
  },
  "idUsuario": "5b3d8ac40406af0004316d27",
  "idExercicio": "5b2ec5f23ebaa50004e95fd7",
  "dataInicial": {
    "$date": "2018-07-05T03:35:11.637Z"
  }
},{
  "_id": {
    "$oid": "5b3d93f10406af0004316d40"
  },
  "idUsuario": "5b3d8ac40406af0004316d27",
  "idExercicio": "5b2eb9cd3ebaa50004e95fcf",
  "dataInicial": {
    "$date": "2018-07-05T03:43:45.338Z"
  }
},{
  "_id": {
    "$oid": "5b3d97700406af0004316d41"
  },
  "idUsuario": "5b3d8ac40406af0004316d27",
  "idExercicio": "5b2ed5643ebaa50004e95fe0",
  "dataInicial": {
    "$date": "2018-07-05T03:58:40.071Z"
  }
},{
  "_id": {
    "$oid": "5b3d97a30406af0004316d42"
  },
  "idUsuario": "5b3d8ac40406af0004316d27",
  "idExercicio": "5b2eb9cd3ebaa50004e95fcf",
  "dataInicial": {
    "$date": "2018-07-05T03:59:31.342Z"
  }
},{
  "_id": {
    "$oid": "5b3d97a90406af0004316d43"
  },
  "idUsuario": "5b3d8ac40406af0004316d27",
  "idExercicio": "5b2ed5643ebaa50004e95fe0",
  "dataInicial": {
    "$date": "2018-07-05T03:59:36.885Z"
  }
},{
  "_id": {
    "$oid": "5b3e2c23c6c31100044578e7"
  },
  "idUsuario": "5b3d8ac40406af0004316d27",
  "idExercicio": "5b2eb9cd3ebaa50004e95fcf",
  "dataInicial": {
    "$date": "2018-07-05T14:33:07.171Z"
  }
},{
  "_id": {
    "$oid": "5b3e2c79c6c31100044578ea"
  },
  "idUsuario": "5b3d8ac40406af0004316d27",
  "idExercicio": "5b2d90248e7f240004977e7d",
  "dataInicial": {
    "$date": "2018-07-05T14:34:33.197Z"
  }
},{
  "_id": {
    "$oid": "5b3e2c9ec6c31100044578eb"
  },
  "idUsuario": "5b3d8ac40406af0004316d27",
  "idExercicio": "5b2eb9cd3ebaa50004e95fcf",
  "dataInicial": {
    "$date": "2018-07-05T14:35:10.254Z"
  }
},{
  "_id": {
    "$oid": "5b3e2ca9c6c31100044578ec"
  },
  "idUsuario": "5b3d8ac40406af0004316d27",
  "idExercicio": "5b2ed5643ebaa50004e95fe0",
  "dataInicial": {
    "$date": "2018-07-05T14:35:21.009Z"
  }
},{
  "_id": {
    "$oid": "5b3ec67d3bfe5800041f7561"
  },
  "idUsuario": "5b2c02ab0138170004fe9f07",
  "idExercicio": "5b2d90248e7f240004977e7d",
  "dataInicial": {
    "$date": "2018-07-06T01:31:40.940Z"
  }
},{
  "_id": {
    "$oid": "5b4362f237852d00041fe97d"
  },
  "idUsuario": "5b3ec7e95294980004b19c00",
  "idExercicio": "5b2eb9cd3ebaa50004e95fcf",
  "dataInicial": {
    "$date": "2018-07-09T13:28:18.912Z"
  }
},{
  "_id": {
    "$oid": "5b47a7ff973dda000453b5ee"
  },
  "idUsuario": "5b47a7de973dda000453b5ed",
  "idExercicio": "5b2d8fcf8e7f240004977e7c",
  "dataInicial": {
    "$date": "2018-07-12T19:11:58.909Z"
  }
},{
  "_id": {
    "$oid": "5b47ad0d973dda000453b5f2"
  },
  "idUsuario": "5b47a7de973dda000453b5ed",
  "idExercicio": "5b2d90248e7f240004977e7d",
  "dataInicial": {
    "$date": "2018-07-12T19:33:33.011Z"
  }
},{
  "_id": {
    "$oid": "5b5722db71636a00044eae42"
  },
  "idUsuario": "5b2c02280138170004fe9f04",
  "idExercicio": "5b2ecb873ebaa50004e95fda",
  "dataInicial": {
    "$date": "2018-07-24T13:00:11.332Z"
  }
},{
  "_id": {
    "$oid": "5b59188f35de6b0004b0363d"
  },
  "idUsuario": "5b2c02ab0138170004fe9f07",
  "idExercicio": "5b59188535de6b0004b0363c",
  "dataInicial": {
    "$date": "2018-07-26T00:40:46.901Z"
  }
},{
  "_id": {
    "$oid": "5b61f85a903ee20004299011"
  },
  "idUsuario": "5b2c02ab0138170004fe9f07",
  "idExercicio": "5b2d905b8e7f240004977e7e",
  "dataInicial": {
    "$date": "2018-08-01T18:13:46.347Z"
  }
},{
  "_id": {
    "$oid": "5b61f885903ee20004299012"
  },
  "idUsuario": "5b2c02ab0138170004fe9f07",
  "idExercicio": "5b2d905b8e7f240004977e7e",
  "dataInicial": {
    "$date": "2018-08-01T18:14:29.085Z"
  }
},{
  "_id": {
    "$oid": "5b61fcbd903ee20004299016"
  },
  "idUsuario": "5b2c02ab0138170004fe9f07",
  "idExercicio": "5b2ec5f23ebaa50004e95fd7",
  "dataInicial": {
    "$date": "2018-08-01T18:32:44.036Z"
  }
},{
  "_id": {
    "$oid": "5b6ca8426c718400049eb698"
  },
  "idUsuario": "5b2c02280138170004fe9f04",
  "idExercicio": "5b2d908f8e7f240004977e7f",
  "dataInicial": {
    "$date": "2018-08-09T20:46:58.656Z"
  }
},{
  "_id": {
    "$oid": "5bb42064010ea3000448a603"
  },
  "idUsuario": "5bb42011010ea3000448a602",
  "idExercicio": "5b2eb9cd3ebaa50004e95fcf",
  "dataInicial": {
    "$date": "2018-10-03T01:50:28.185Z"
  }
},{
  "_id": {
    "$oid": "5bbe469a43578b000407ba72"
  },
  "idUsuario": "5bbe468143578b000407ba71",
  "idExercicio": "5b2d8fcf8e7f240004977e7c",
  "dataInicial": {
    "$date": "2018-10-10T18:36:10.677Z"
  }
},{
  "_id": {
    "$oid": "5bbe46ae43578b000407ba74"
  },
  "idUsuario": "5bbe468143578b000407ba71",
  "idExercicio": "5b59188535de6b0004b0363c",
  "dataInicial": {
    "$date": "2018-10-10T18:36:30.323Z"
  }
},{
  "_id": {
    "$oid": "5bbe46db43578b000407ba76"
  },
  "idUsuario": "5bbe468143578b000407ba71",
  "idExercicio": "5b2d905b8e7f240004977e7e",
  "dataInicial": {
    "$date": "2018-10-10T18:37:15.179Z"
  }
},{
  "_id": {
    "$oid": "5bc4a84d14b1ba0004c3acb2"
  },
  "idUsuario": "5bbe468143578b000407ba71",
  "idExercicio": "5b2ecb873ebaa50004e95fda",
  "dataInicial": {
    "$date": "2018-10-15T14:46:37.448Z"
  }
},{
  "_id": {
    "$oid": "5bc4a85314b1ba0004c3acb3"
  },
  "idUsuario": "5bbe468143578b000407ba71",
  "idExercicio": "5b2d905b8e7f240004977e7e",
  "dataInicial": {
    "$date": "2018-10-15T14:46:43.517Z"
  }
},{
  "_id": {
    "$oid": "5bc4a96d14b1ba0004c3acb4"
  },
  "idUsuario": "5bbe468143578b000407ba71",
  "idExercicio": "5b2d8fcf8e7f240004977e7c",
  "dataInicial": {
    "$date": "2018-10-15T14:51:25.495Z"
  }
},{
  "_id": {
    "$oid": "5bcb5354ff423d0004dd53e9"
  },
  "idUsuario": "5bbe468143578b000407ba71",
  "idExercicio": "5b2ecb873ebaa50004e95fda",
  "dataInicial": {
    "$date": "2018-10-20T16:09:56.493Z"
  }
},{
  "_id": {
    "$oid": "5bdde578f3ee740004c76d77"
  },
  "idUsuario": "5bb42011010ea3000448a602",
  "idExercicio": "5b2eb9cd3ebaa50004e95fcf",
  "dataInicial": {
    "$date": "2018-11-03T18:14:16.328Z"
  }
},{
  "_id": {
    "$oid": "5be381f0db08620004380494"
  },
  "idUsuario": "5be381dddb08620004380493",
  "idExercicio": "5b2ed0853ebaa50004e95fdc",
  "dataInicial": {
    "$date": "2018-11-08T00:23:12.536Z"
  }
},{
  "_id": {
    "$oid": "5be38202db08620004380495"
  },
  "idUsuario": "5be381dddb08620004380493",
  "idExercicio": "5b2eb9cd3ebaa50004e95fcf",
  "dataInicial": {
    "$date": "2018-11-08T00:23:30.512Z"
  }
},{
  "_id": {
    "$oid": "5be3820bdb08620004380496"
  },
  "idUsuario": "5be381dddb08620004380493",
  "idExercicio": "5b2d905b8e7f240004977e7e",
  "dataInicial": {
    "$date": "2018-11-08T00:23:39.210Z"
  }
},{
  "_id": {
    "$oid": "5be3824edb0862000438049a"
  },
  "idUsuario": "5be381dddb08620004380493",
  "idExercicio": "5b2d90248e7f240004977e7d",
  "dataInicial": {
    "$date": "2018-11-08T00:24:46.530Z"
  }
},{
  "_id": {
    "$oid": "5bff62f17795be0004c49178"
  },
  "idUsuario": "5bbe468143578b000407ba71",
  "idExercicio": "5b2ecb873ebaa50004e95fda",
  "dataInicial": {
    "$date": "2018-11-29T03:54:25.729Z"
  }
},{
  "_id": {
    "$oid": "5c61b5997040f500045b53f2"
  },
  "idUsuario": "5c61b5877040f500045b53f1",
  "idExercicio": "5b2eb9cd3ebaa50004e95fcf",
  "dataInicial": {
    "$date": "2019-02-11T17:49:13.204Z"
  }
},{
  "_id": {
    "$oid": "5cd9a819ca05ad00043b2cfc"
  },
  "idUsuario": "5cd9a796ca05ad00043b2cfb",
  "idExercicio": "5b2eb9cd3ebaa50004e95fcf",
  "dataInicial": {
    "$date": "2019-05-13T17:23:37.415Z"
  }
},{
  "_id": {
    "$oid": "5cd9ab08ca05ad00043b2d01"
  },
  "idUsuario": "5b2c02ab0138170004fe9f07",
  "idExercicio": "5b2ed5643ebaa50004e95fe0",
  "dataInicial": {
    "$date": "2019-05-13T17:36:08.287Z"
  }
},{
  "_id": {
    "$oid": "5cd9be2fab65e40004b85064"
  },
  "idUsuario": "5b2c02ab0138170004fe9f07",
  "idExercicio": "5b2ed5643ebaa50004e95fe0",
  "dataInicial": {
    "$date": "2019-05-13T18:57:50.855Z"
  }
},{
  "_id": {
    "$oid": "5cd9c000ab65e40004b8506a"
  },
  "idUsuario": "5b2c02ab0138170004fe9f07",
  "idExercicio": "5b2ed5643ebaa50004e95fe0",
  "dataInicial": {
    "$date": "2019-05-13T19:05:35.955Z"
  }
},{
  "_id": {
    "$oid": "5cd9c0d4ab65e40004b8506d"
  },
  "idUsuario": "5b2c02ab0138170004fe9f07",
  "idExercicio": "5b2ed5643ebaa50004e95fe0",
  "dataInicial": {
    "$date": "2019-05-13T19:09:08.693Z"
  }
},{
  "_id": {
    "$oid": "5f340dd0a66d1f0004be48fc"
  },
  "idUsuario": "5f340da9a66d1f0004be48fb",
  "idExercicio": "5b2eb9cd3ebaa50004e95fcf",
  "dataInicial": {
    "$date": "2020-08-12T15:42:08.383Z"
  }
},{
  "_id": {
    "$oid": "5f340dfba66d1f0004be48fd"
  },
  "idUsuario": "5f340da9a66d1f0004be48fb",
  "idExercicio": "5b2eb9cd3ebaa50004e95fcf",
  "dataInicial": {
    "$date": "2020-08-12T15:42:51.336Z"
  }
}]